HaarlemNITR202 RGTB423 CASNITR204 OSDD493 OSDD105 NA-A0009 EAI_OSDD271 NA-A0008 RGTB327 CDC1551 CDC1551A PanR0305 PanR0316 PanR0301 SUMu001 SUMu011 SUMu010 98-R604_INH-RIF-EM GM_1503 KZN_V2475 KZN_1435 KZN_R506 KZN_605 KZN_4207_Broad KZN_4207 F11 HM PanR0708 PanR0906 PanR0703 PanR1007 PanR0611 PanR0704 PanR0805 PanR1101 PanR0403 UT205 PanR0313 PanR0610 PanR0903 PanR0404 PanR0409 PanR0503 PanR0402 PanR0203 PanR0602 CTRI-2 PanR0407 PanR0601 PanR0401 PanR0205 PanR0306 PanR0209 PanR0607 PanR0609 PanR0904 PanR0803 PanR0207 PanR0314 PanR0909 PanR0707 PanR0603 PanR0604 PanR0702 PanR0505 PanR0804 PanR0411 PanR0307 PanR0412 PanR0405 PanR0410 PanR0317 PanR0311 PanR1006 PanR1005 PanR0802 PanR0501 INS_SEN INS_XDR INS_MDR MTB-476 EAI5NITR206 GuangZ0019 SUMu006 SUMu004 SUMu005 SUMu007 SUMu003 SUMu008 SUMu002 SUMu009 PanR0208 MTB-489 PanR0309 PanR0202 BTB05-559 BTB05-552 S96-129 OSDD515 H37Rv SUMu012 H37Ra PanR0908 H37RvHA H37RvMA H37RvAE H37RvCO H37Rv_Broad H37RvLP H37RvJO H37Ra_WGS C PanR0315 PanR0907 PanR0206 Haarlem PanR0902 Erdman PanR0801 7199-99 PanR0308 PanR0201 PanR0304 CPHL_A K85 T92 43-16836 PR05 T17 T46 EAI5 EAS054 OSDD504 OSDD518 OSDD071 UM_1072388579 FJ05194 94_M4241A CTRI-4 X132 R1207 X28 X156 X85 R1746 02_1987 HN878 210 BeijingNITR203 PanR0605 PanR0606 OM-V02_005 XDR1221 NCGM2209 R1505 R1441 R1390 R1842 X29 X122 X189 R1909 W-148 SP21 CCDC5180 BT2 CCDC5079 T85 HKBS1 WX1 WX3 XDR1219 BT1
Rifampicin	R S:9,14_16,18,23,24,46,80,83_90,92,95_97,99_101,110,111,117,119,123_125,128,129,131,137,145_147,155_157,166,168;?:0_2,5,7,8,10,25,26,33,36,77_79,81,103_109,115,126,127,130,132_134,148,153,164,167
Fluoroquinolones	? S:4,9,14_18,20,23,24,46,80,83_90,92,95_101,110,111,117,119,123_125,128,129,131,137,139,142,145,146,158,166;R:3,21,22,82,135,136,138,141,143,152,159,160,163,165,169_172
Isoniazid	R S:9,14_16,18,23,24,46,80,83_90,92,99_101,110,111,117,119,123_125,128,129,131,137,145_147,166,168;?:0,2,5,7,10,25,26,33,36,77_79,81,103_109,115,126,127,130,132_134,148,153,164,167
Rifampicin	R S:9,14_16,18,23,24,46,80,83_90,92,95_97,99_101,110,111,117,119,123_125,128,129,131,137,145_147,155_157,166,168;?:0_2,5,7,8,10,25,26,33,36,77_79,81,103_109,115,126,127,130,132_134,148,153,164,167
Ethambutol	S R:1,3,4,6,17,22,29,44,49_52,55,60_64,69,74,75,82,94,98,102,113,116,120,122,136,138,152,161,163,165,169_172;?:0,2,5,7,8,10,19,21,25,26,33,34,36,59,77_79,81,103_109,115,126,127,130,132_134,148,151,153,160,162,164,167
Streptomycin	R S:9,11,14_18,20,23,24,27,28,30_32,37_42,45,46,67,80,83_90,92,95,96,99_101,110_112,117,119,123_125,128,129,131,137,145,146,150,160,166,168;?:0,2,5,7,8,10,25,26,33,34,36,59,77_79,81,103_109,115,126,127,130,132_134,140,143,144,147,148,151,153_157,159,161,162,164,167
Pyrazinamide	? S:3,9,14_16,18,23,24,46,80,83_90,92,95_97,99_101,110,111,117,119,123_125,128,129,131,137,145,146,163,166;R:4,6,98,138,165,172
