%mtu173
>rpoA
10	S:165	G
11	E:165	R
12	D:165	T
13	V:165	S
14	L:165	S
15	T:165	P
16	D:165	N
31	G:164	S,A
>rpoB
45	P:90	L
250	E:165	G:3
430	L:167	P
435	D:146	Y:2,F:5,V:11,G:3,A
445	H:157	D:8,Y:2,R
450	S:97	L:71
452	L:166	P:2
487	N:167	S
491	I:167	L
672	S:171	Y
692	A:142	T:30
731	L:171	P
835	H:171	R
1106	I:170	T:2
>rpoC
332	G:160	S:7
431	V:168	M
433	G:168	S
483	V:163	A,G:5
484	W:168	G
491	I:167	T:2
507	L:168	V
519	G:168	V
527	L:161	V:8
698	N:168	K
734	A:167	V:2
989	V:160	I:9
1133	H:168	Y
1152	K:158	Q:11
1241	R:166	A
1252	V:159	M:4
