GA04216
GA11184
PCS81218
GA17301
GA02254
SPN7465
Taiwan19F-14
G54
SPAR95
GA41538
SPN034156
GA05578
PNI0010
3051
459-5
ND6012
GA02270
SPAR27
GA19923
GA47461
SPN032672
B605
GA60080
GA47901
GA44288
7533-05
GA08780
BHN191
GA04375
CCRI_1974
3063-00
439-1
PNI0446
GA47688
GA49447
PT8114
GA13430
GA43257
GA17971
2070335
GA44128
SP9v-BS293
CDC3059-06
GA17328
GA62681
BR1064
GA44511
GA40183
GA44452
GA19998
MNZ41
2070531
ICE59
NP141
WL400
2071004
670-6B
PNI0007
ATCC_700669
GA44194
MNZ11b
MNZ85
GA49542
GA54644
GA17719
SP9-BS68
INV104B
MNZ37
13856
1779n23_04
PNI0427
GA18068
GA13455
6901-05
7286-06
2070035
GA19690
SPAR55
gamPNI0373
4075-00
GA11426
88-1
SPN1041
6735-05
MLV-016
2070005
GA47794
GA41277
GA58771
1542
SP3-BS71
PNI0197
PCS8203
GA14373
A026
5652-06
PNI0212
GA40410
GA05245
Hungary19A-6
SP6-BS73
MNZ14
GA05248
GA17484
GA47388
BHN427
5787-06
357
GA47179
PNI0076
GA58581
PCS125219
GA07228
GA41301
GA56113
P1031
PNI0008
GA47373
R6M2-PG
WL677
Netherlands15B-37
SP23-BS72
GA41410
GA11856
Spain9V
CDC0288-04
GA47778
GA60132
PCS8106
SP14-BS292
OXC141
SPN994038
SPN994039
GA40028
GA14688
CDC1873-00
SV36
SV35
GA13494
GA13499
PNI0199
SPNA45
GA44386
801
GA17227
2070768
06-01-003MEF
GA47976
GA07643
GA47502
GA13224
GA02714
GA16121
GA17545
GA44500
2082239
GA47210
GA16242
BS397
5185-06
2009
CGSP14
GA41437
PNI0153
England14-9
D39
GA43380
GA47439
GA47283
GA47281
PNI0002
NP127
PNI0006
CDC1087-00
PNI0009
2080913
GA52306
TIGR4_WGS
8190-05
GA49194
SP195
GA47751
GA13338
TIGR4
GA04175
2081685
GA13637
6963-05
PNI0159
GA47522
GA47033
GA14798
GA47597
GA13723
SP14-BS69
TCH843119A
70585
GA17457
GA04672
2061617
GA19077
SP11-BS70
GA47628
2071247
SP18-BS74
JJA
SPAR48
7879-04
2072047
Spain6B
GA54354
GA07914
NorthCarolina6A-23
GA11304
GA41565
GA41688
NP170
ICE44
GA40563
INV200
SP19-BS75
GA02506
GA19451
GA11663
2070425
2090008
GA17570
R6
INV104
GA19101
BHN237
1417
NP070
BHN418
1974M1-LZD
GA52612
BS457
BS455
GA43265
GA43264
BS458
845
GA44378
2061376
EU-NP05
EU-NP04
GA17371
EU-NP01
EU-NP03
EU-NP02
GA47360
SPN033038
GA47368
AP200
GA58981
GA60190
SPN034183
SPN021198
GA62331
2081074
GA47760
PNI0360
2080076
GA56348
2082170
GA16833
NP112
2070108
PNI0164
GA06083
2070109
Canada_MDR_19A
GA16531
PCS70012
Canada_MDR_19F
SPN061370
GA13856
GA47562
GA18523
Sp647
1719
GA49138
07AR0125
27
SPN072838
ST556
1488
4027-06
GA08825
GA41317
CCRI_1974M2
