2070335
06-01-003MEF
SPN034156
SPN072838
GA47597
GA19101
SP3-BS71
GA19690
GA07228
SPN021198
SPN994038
SPN994039
OXC141
SPN034183
GA13856
GA41317
GA49194
EU-NP03
2081685
2071247
AP200
SP11-BS70
GA47562
GA07914
MLV-016
GA47760
2080913
SP23-BS72
2070005
GA14688
GA44128
NP070
CDC0288-04
GA47439
2070035
2080076
BHN191
BHN418
BHN427
BHN237
GA47210
GA54354
GA62331
EU-NP05
GA40410
5787-06
CDC3059-06
6963-05
6735-05
4027-06
6901-05
GA43265
GA06083
GA62681
GA47522
GA40183
GA04175
GA04672
GA11184
Netherlands15B-37
GA11426
GA41277
GA44500
JJA
357
GA11663
GA41565
459-5
ATCC_700669
GA44378
GA13430
NP170
SV36
SV35
GA13499
GA04375
3063-00
ST556
GA17719
GA49138
GA13455
GA08825
Taiwan19F-14
GA47628
4075-00
A026
GA47281
GA14798
GA19451
GA18523
8190-05
GA47688
7286-06
5652-06
GA58771
TCH843119A
GA19923
7533-05
GA44288
EU-NP02
5185-06
7879-04
GA11856
Canada_MDR_19A
Canada_MDR_19F
GA47778
GA16121
GA17371
GA17328
GA41437
GA47751
GA47368
GA49447
GA44452
GA44386
GA43264
SPAR55
GA19077
GA02270
NorthCarolina6A-23
GA14373
CDC1873-00
GA02714
NP127
2081074
2082170
TIGR4_WGS
TIGR4
SPAR48
EU-NP01
GA07643
GA18068
GA47360
GA16242
GA17545
NP112
GA05248
GA02506
GA04216
GA05578
GA11304
670-6B
Sp647
Spain6B
ICE59
ICE44
CGSP14
BS455
GA47976
GA13338
SP14-BS292
BS458
BS457
SP9v-BS293
BS397
GA41688
GA58581
England14-9
INV200
GA47373
SP19-BS75
MNZ11b
MNZ37
GA02254
CCRI_1974M2
CCRI_1974
1974M1-LZD
07AR0125
GA47033
GA52306
EU-NP04
GA60190
ND6012
BR1064
PT8114
GA60132
2082239
2061617
WL677
GA43380
GA47461
GA17484
SPAR27
R6M2-PG
D39
R6
GA47283
2070108
GA40028
CDC1087-00
NP141
2070109
Spain9V
88-1
1417
439-1
SP195
GA17301
GA56113
GA08780
GA49542
SP9-BS68
2070531
2070425
GA17570
GA54644
GA44511
GA47388
GA43257
GA19998
GA44194
G54
B605
GA47179
GA47794
GA52612
WL400
SP18-BS74
2071004
2090008
GA58981
2061376
GA56348
MNZ14
MNZ85
27
MNZ41
1719
PNI0009
PNI0008
PNI0427
PCS81218
PNI0360
PNI0010
PCS70012
PNI0006
gamPNI0373
PCS125219
PNI0007
PNI0002
SPN7465
PNI0197
PNI0199
PNI0446
PNI0164
PNI0212
PNI0159
PNI0076
PNI0153
SPN1041
P1031
GA40563
GA13224
GA13637
GA17227
GA05245
GA41301
GA41538
GA16531
GA47901
INV104B
INV104
PCS8203
PCS8106
SPN033038
SPN032672
SPN061370
1542
GA16833
SPAR95
70585
GA60080
SPNA45
Hungary19A-6
GA47502
1779n23_04
GA17457
SP6-BS73
2009
801
845
GA17971
GA13494
GA13723
2072047
1488
3051
GA41410
2070768
13856
SP14-BS69
