x
0	0	1
y
0	0	1
(xx)
0	0	1
0	1	2
(xy)
0	0	1
0	1	1
1	1	1
(yy)
0	0	1
0	1	0
1	1	2
((xx)x)
0	0	1
0	1	4
0	2	2
((yy)x)
0	0	1
0	1	1
1	1	3
0	2	0
1	2	2
(((xx)x)x)
0	0	1
0	1	6
0	2	6
0	3	2
(((yy)x)y)
0	0	1
0	1	2
1	1	4
0	2	0
1	2	3
2	2	3
0	3	0
1	3	0
2	3	2
((xx)(xx))
0	0	1
0	1	6
0	2	8
((xy)(xy))
0	0	1
0	1	4
1	1	2
0	2	3
1	2	4
2	2	1
(((xx)(xx))x)
0	0	1
0	1	8
0	2	14
0	3	8
(((xx)x)(xx))
0	0	1
0	1	8
0	2	16
0	3	6
(((xy)(xy))x)
0	0	1
0	1	6
1	1	2
0	2	7
1	2	6
2	2	1
0	3	3
1	3	4
2	3	1
(((yy)x)(xx))
0	0	1
0	1	5
1	1	3
0	2	5
1	2	11
0	3	0
1	3	6
((((xx)x)(xx))x)
0	0	1
0	1	10
0	2	24
0	3	22
0	4	6
((((xx)x)x)(xx))
0	0	1
0	1	10
0	2	26
0	3	20
0	4	6
((((xy)(xy))x)y)
0	0	1
0	1	7
1	1	3
0	2	7
1	2	12
2	2	3
0	3	3
1	3	11
2	3	7
3	3	1
0	4	0
1	4	3
2	4	4
3	4	1
((((yy)x)(xx))x)
0	0	1
0	1	7
1	1	3
0	2	10
1	2	14
0	3	5
1	3	17
0	4	0
1	4	6
((((yy)x)y)(yy))
0	0	1
0	1	3
1	1	7
0	2	0
1	2	11
2	2	15
0	3	0
1	3	0
2	3	11
3	3	9
0	4	0
1	4	0
2	4	0
3	4	6
(((((yy)x)y)(yy))y)
0	0	1
0	1	4
1	1	8
0	2	0
1	2	14
2	2	22
0	3	0
1	3	0
2	3	22
3	3	24
0	4	0
1	4	0
2	4	0
3	4	17
4	4	9
0	5	0
1	5	0
2	5	0
3	5	0
4	5	6
(((((xx)x)(xx))x)(xx))
0	0	1
0	1	14
0	2	56
0	3	94
0	4	72
0	5	18
(((((yy)x)(xx))x)(xx))
0	0	1
0	1	11
1	1	3
0	2	33
1	2	23
0	3	35
1	3	59
0	4	15
1	4	57
0	5	0
1	5	18
((((xx)(xx))x)((xx)x))
0	0	1
0	1	14
0	2	60
0	3	96
0	4	68
0	5	16
((((((xx)x)(xx))x)(xx))y)
0	0	1
0	1	15
1	1	1
0	2	56
1	2	14
0	3	94
1	3	56
0	4	72
1	4	94
0	5	18
1	5	72
0	6	0
1	6	18
(((((xx)(xx))x)((xx)x))x)
0	0	1
0	1	16
0	2	74
0	3	156
0	4	164
0	5	84
0	6	16
((((((yy)x)y)(yy))y)((yy)x))
0	0	1
0	1	7
1	1	11
0	2	9
1	2	47
2	2	46
0	3	0
1	3	38
2	3	124
3	3	90
0	4	0
1	4	0
2	4	72
3	4	175
4	4	81
0	5	0
1	5	0
2	5	0
3	5	78
4	5	123
5	5	27
0	6	0
1	6	0
2	6	0
3	6	0
4	6	46
5	6	36
0	7	0
1	7	0
2	7	0
3	7	0
4	7	0
5	7	12
(((((((yy)x)y)(yy))y)((yy)x))y)
0	0	1
0	1	8
1	1	12
0	2	9
1	2	54
2	2	57
0	3	0
1	3	47
2	3	171
3	3	136
0	4	0
1	4	0
2	4	110
3	4	299
4	4	171
0	5	0
1	5	0
2	5	0
3	5	150
4	5	298
5	5	108
0	6	0
1	6	0
2	6	0
3	6	0
4	6	124
5	6	159
6	6	27
0	7	0
1	7	0
2	7	0
3	7	0
4	7	0
5	7	58
6	7	36
0	8	0
1	8	0
2	8	0
3	8	0
4	8	0
5	8	0
6	8	12
((((((((yy)x)y)(yy))y)((yy)x))y)x)
0	0	1
0	1	10
1	1	12
0	2	17
1	2	66
2	2	57
0	3	9
1	3	101
2	3	228
3	3	136
0	4	0
1	4	47
2	4	281
3	4	435
4	4	171
0	5	0
1	5	0
2	5	110
3	5	449
4	5	469
5	5	108
0	6	0
1	6	0
2	6	0
3	6	150
4	6	422
5	6	267
6	6	27
0	7	0
1	7	0
2	7	0
3	7	0
4	7	124
5	7	217
6	7	63
0	8	0
1	8	0
2	8	0
3	8	0
4	8	0
5	8	58
6	8	48
0	9	0
1	9	0
2	9	0
3	9	0
4	9	0
5	9	0
6	9	12
(((((((((yy)x)y)(yy))y)((yy)x))y)x)((((xy)(xy))x)y))
0	0	1
0	1	19
1	1	15
0	2	111
1	2	207
2	2	96
0	3	225
1	3	907
2	3	1066
3	3	344
0	4	224
1	4	1708
2	4	3863
3	4	3185
4	4	762
0	5	114
1	5	1609
2	5	6430
3	5	9928
4	5	5935
5	5	1086
0	6	27
1	6	782
2	6	5535
3	6	14714
4	6	16268
5	6	7132
6	6	1000
0	7	0
1	7	168
2	7	2469
3	7	11485
4	7	21684
5	7	17329
6	7	5551
7	7	576
0	8	0
1	8	0
2	8	471
3	8	4638
4	8	15338
5	8	20819
6	8	11901
7	8	2710
8	8	189
0	9	0
1	9	0
2	9	0
3	9	780
4	9	5571
5	9	13277
6	9	12758
7	9	5040
8	9	753
9	9	27
0	10	0
1	10	0
2	10	0
3	10	0
4	10	822
5	10	4287
6	10	7211
7	10	4693
8	10	1177
9	10	90
0	11	0
1	11	0
2	11	0
3	11	0
4	11	0
5	11	546
6	11	2013
7	11	2259
8	11	899
9	11	111
0	12	0
1	12	0
2	12	0
3	12	0
4	12	0
5	12	0
6	12	210
7	12	508
8	12	334
9	12	60
0	13	0
1	13	0
2	13	0
3	13	0
4	13	0
5	13	0
6	13	0
7	13	36
8	13	48
9	13	12
(((((((xx)x)(xx))x)(xx))y)(((((xx)(xx))x)((xx)x))x))
0	0	1
0	1	33
1	1	1
0	2	401
1	2	31
0	3	2386
1	3	368
0	4	8474
1	4	2238
0	5	19642
1	5	8162
0	6	30842
1	6	19314
0	7	32940
1	7	30674
0	8	23408
1	8	32908
0	9	10504
1	9	23408
0	10	2664
1	10	10504
0	11	288
1	11	2664
0	12	0
1	12	288
((((((((((yy)x)y)(yy))y)((yy)x))y)x)((((xy)(xy))x)y))((yy)x))
0	0	1
0	1	22
1	1	18
0	2	150
1	2	299
2	2	141
0	3	447
1	3	1694
2	3	1909
3	3	632
0	4	674
1	4	4419
2	4	9130
3	4	7263
4	4	1794
0	5	562
1	5	6147
2	5	21094
3	5	30019
4	5	17702
5	5	3372
0	6	255
1	6	4790
2	6	26638
3	6	61586
4	6	64292
5	6	28633
6	6	4258
0	7	54
1	7	2041
2	7	19103
3	7	70378
4	7	118218
5	7	92267
6	7	31119
7	7	3576
0	8	0
1	8	390
2	8	7477
3	8	46085
4	8	122589
5	8	153065
6	8	89254
7	8	22515
8	8	1917
0	9	0
1	9	0
2	9	1278
3	9	16407
4	9	73131
5	9	144297
6	9	133675
7	9	57265
8	9	10413
9	9	594
0	10	0
1	10	0
2	10	0
3	10	2502
4	10	23580
5	10	78230
6	10	114196
7	10	76849
8	10	23223
9	10	2781
0	11	0
1	11	0
2	11	0
3	11	0
4	11	3204
5	11	22728
6	11	55850
7	11	58794
8	11	27412
9	11	5328
0	12	0
1	12	0
2	12	0
3	12	0
4	12	0
5	12	2736
6	12	14448
7	12	25487
8	12	18295
9	12	5333
0	13	0
1	13	0
2	13	0
3	13	0
4	13	0
5	13	0
6	13	1512
7	13	5708
8	13	6758
9	13	2932
0	14	0
1	14	0
2	14	0
3	14	0
4	14	0
5	14	0
6	14	0
7	14	492
8	14	1220
9	14	836
0	15	0
1	15	0
2	15	0
3	15	0
4	15	0
5	15	0
6	15	0
7	15	0
8	15	72
9	15	96
((((((((xx)x)(xx))x)(xx))y)(((((xx)(xx))x)((xx)x))x))((xx)x))
0	0	1
0	1	39
1	1	1
0	2	572
1	2	36
0	3	4459
1	3	525
0	4	21206
1	4	4140
0	5	66784
1	5	20088
0	6	146000
1	6	64600
0	7	226434
1	7	143568
0	8	249792
1	8	224906
0	9	193424
1	9	249296
0	10	102000
1	10	193360
0	11	34616
1	11	102000
0	12	6768
1	12	34616
0	13	576
1	13	6768
0	14	0
1	14	576
(((((((((xx)x)(xx))x)(xx))y)(((((xx)(xx))x)((xx)x))x))((xx)x))x)
0	0	1
0	1	41
1	1	1
0	2	611
1	2	37
0	3	5031
1	3	561
0	4	25665
1	4	4665
0	5	87990
1	5	24228
0	6	212784
1	6	84688
0	7	372434
1	7	208168
0	8	476226
1	8	368474
0	9	443216
1	9	474202
0	10	295424
1	10	442656
0	11	136616
1	11	295360
0	12	41384
1	12	136616
0	13	7344
1	13	41384
0	14	576
1	14	7344
0	15	0
1	15	576
(((((((((((yy)x)y)(yy))y)((yy)x))y)x)((((xy)(xy))x)y))((yy)x))((((xx)x)x)(xx)))
0	0	1
0	1	34
1	1	18
0	2	428
1	2	497
2	2	141
0	3	2715
1	3	5451
2	3	3460
3	3	632
0	4	9957
1	4	31187
2	4	33795
3	4	14215
4	4	1794
0	5	22736
1	5	104888
2	5	173978
3	5	126344
4	5	37436
5	5	3372
0	6	33801
1	6	222975
2	6	535078
3	6	593273
4	6	305658
5	6	65725
6	6	4258
0	7	33633
1	7	313097
2	7	1054619
3	7	1677370
4	7	1321562
5	7	494902
6	7	77957
7	7	3576
0	8	22508
1	8	296835
2	8	1386858
3	8	3065437
4	8	3459383
5	8	1979900
6	8	542271
7	8	61851
8	8	1917
0	9	9876
1	9	190038
2	9	1239527
3	9	3765004
4	9	5887330
5	9	4819846
6	9	2009723
7	9	397906
8	9	31500
9	9	594
0	10	2610
1	10	79700
2	10	750348
3	10	3158265
4	10	6765447
5	10	7662325
6	10	4553153
7	10	1363674
8	10	187608
9	10	9315
0	11	324
1	11	20046
2	11	297386
3	11	1798072
4	11	5325078
5	11	8249882
6	11	6759350
7	11	2864779
8	11	591943
9	11	51363
0	12	0
1	12	2340
2	12	70422
3	12	669702
4	12	2846478
5	12	6091054
6	12	6806918
7	12	3950685
8	12	1143387
9	12	148127
0	13	0
1	13	0
2	13	7668
3	13	148482
4	13	993690
5	13	3051406
6	13	4698510
7	13	3695279
8	13	1447653
9	13	259307
0	14	0
1	14	0
2	14	0
3	14	15012
4	14	205560
5	14	995076
6	14	2194456
7	14	2362916
8	14	1238806
9	14	294992
0	15	0
1	15	0
2	15	0
3	15	0
4	15	19224
5	15	191088
6	15	663372
7	15	1016324
8	15	719572
9	15	224152
0	16	0
1	16	0
2	16	0
3	16	0
4	16	0
5	16	16416
6	16	116928
7	16	279874
8	16	277442
9	16	113430
0	17	0
1	17	0
2	17	0
3	17	0
4	17	0
5	17	0
6	17	9072
7	17	44088
8	17	66820
9	17	36808
0	18	0
1	18	0
2	18	0
3	18	0
4	18	0
5	18	0
6	18	0
7	18	2952
8	18	8760
9	18	6936
0	19	0
1	19	0
2	19	0
3	19	0
4	19	0
5	19	0
6	19	0
7	19	0
8	19	432
9	19	576
((((((((((xx)x)(xx))x)(xx))y)(((((xx)(xx))x)((xx)x))x))((xx)x))x)(((((yy)x)(xx))x)(xx)))
0	0	1
0	1	54
1	1	4
0	2	1147
1	2	198
2	2	3
0	3	13784
1	3	3896
2	3	134
0	4	107685
1	4	44334
2	4	2593
0	5	584008
1	5	331200
2	5	29138
0	6	2300859
1	6	1736236
2	6	215205
0	7	6803252
1	7	6669760
2	7	1119186
0	8	15431931
1	8	19335356
2	8	4277783
0	9	27215540
1	9	43119250
2	9	12354844
0	10	37556424
1	10	74817882
2	10	27442740
0	11	40562252
1	11	101511432
2	11	47364540
0	12	34085718
1	12	107615802
2	12	63795128
0	13	22000360
1	13	88565362
2	13	66981878
0	14	10667296
1	14	55840984
2	14	54459588
0	15	3746944
1	15	26383376
2	15	33837536
0	16	896808
1	16	9011464
2	16	15715888
0	17	130320
1	17	2094312
2	17	5264520
0	18	8640
1	18	295344
2	18	1197504
0	19	0
1	19	19008
2	19	165024
0	20	0
1	20	0
2	20	10368
(((((((((((xx)x)(xx))x)(xx))y)(((((xx)(xx))x)((xx)x))x))((xx)x))x)(((((yy)x)(xx))x)(xx)))((xx)x))
0	0	1
0	1	60
1	1	4
0	2	1423
1	2	218
2	2	3
0	3	19629
1	3	4894
2	3	149
0	4	178899
1	4	64210
2	4	3269
0	5	1150001
1	5	560662
2	5	42371
0	6	5436269
1	6	3480904
2	6	366081
0	7	19475563
1	7	16013340
2	7	2253487
0	8	54049909
1	8	56156628
2	8	10304123
0	9	117981699
1	9	153135550
2	9	35982131
0	10	204497986
1	10	329084844
2	10	97772526
0	11	282775452
1	11	561839342
2	11	209287928
0	12	312009826
1	12	764808726
2	12	355503308
0	13	273553454
1	13	829667236
2	13	480686598
0	14	188840532
1	14	713899398
2	14	516959234
0	15	101084144
1	15	482719020
2	15	440099232
0	16	40966120
1	16	252610312
2	16	293822744
0	17	12108248
1	17	99918384
2	17	151519032
0	18	2453856
1	18	28789832
2	18	58951880
0	19	303840
1	19	5684352
2	19	16681584
0	20	17280
1	20	685728
2	20	3230496
0	21	0
1	21	38016
2	21	381888
0	22	0
1	22	0
2	22	20736
((((((((((((xx)x)(xx))x)(xx))y)(((((xx)(xx))x)((xx)x))x))((xx)x))x)(((((yy)x)(xx))x)(xx)))((xx)x))x)
0	0	1
0	1	62
1	1	4
0	2	1483
1	2	222
2	2	3
0	3	21052
1	3	5112
2	3	152
0	4	198528
1	4	69104
2	4	3418
0	5	1328900
1	5	624872
2	5	45640
0	6	6586270
1	6	4041566
2	6	408452
0	7	24911832
1	7	19494244
2	7	2619568
0	8	73525472
1	8	72169968
2	8	12557610
0	9	172031608
1	9	209292178
2	9	46286254
0	10	322479685
1	10	482220394
2	10	133754657
0	11	487273438
1	11	890924186
2	11	307060454
0	12	594785278
1	12	1326648068
2	12	564791236
0	13	585563280
1	13	1594475962
2	13	836189906
0	14	462393986
1	14	1543566634
2	14	997645832
0	15	289924676
1	15	1196618418
2	15	957058466
0	16	142050264
1	16	735329332
2	16	733921976
0	17	53074368
1	17	352528696
2	17	445341776
0	18	14562104
1	18	128708216
2	18	210470912
0	19	2757696
1	19	34474184
2	19	75633464
0	20	321120
1	20	6370080
2	20	19912080
0	21	17280
1	21	723744
2	21	3612384
0	22	0
1	22	38016
2	22	402624
0	23	0
1	23	0
2	23	20736
(((((((((((((xx)x)(xx))x)(xx))y)(((((xx)(xx))x)((xx)x))x))((xx)x))x)(((((yy)x)(xx))x)(xx)))((xx)x))x)(((((((((((yy)x)y)(yy))y)((yy)x))y)x)((((xy)(xy))x)y))((yy)x))((((xx)x)x)(xx))))
0	0	1
0	1	98
1	1	22
0	2	4115
1	2	1993
2	2	216
0	3	102636
1	3	78050
2	3	18584
3	3	1250
0	4	1751074
1	4	1844487
2	4	695054
3	4	103400
4	4	4745
0	5	21964008
1	5	30063856
2	5	15760452
3	5	3736658
4	5	379434
5	5	12444
0	6	211456334
1	6	362093384
2	6	247158314
3	6	82010619
4	6	13325761
5	6	964882
6	6	23128
0	7	1608699350
1	7	3359744848
2	7	2869419333
3	7	1245597679
4	7	284545454
5	7	33040493
6	7	1742691
7	7	30724
0	8	9879976490
1	8	24708631399
2	8	25708226770
3	8	14012112323
4	8	4204856917
5	8	688519434
6	8	58315536
7	8	2253962
8	8	28995
0	9	49797884453
1	9	147076264626
2	9	182886010125
3	9	121728438998
4	9	46023867686
5	9	9928285694
6	9	1188474285
7	9	73840563
8	9	2074634
9	9	18990
0	10	208693963657
1	10	720119928015
2	10	1054936065674
3	10	840440816537
4	10	389135165198
5	10	106028326126
6	10	16756858120
7	10	1474333741
8	10	66648198
9	10	1327416
0	11	734901683463
1	11	2937686642834
2	11	5014360556890
3	11	4709914013673
4	11	2616107973866
5	11	874802421595
6	11	174945636564
7	11	20359168711
8	11	1305816982
9	11	41880084
0	12	2193222688352
1	12	10088653947803
2	12	19892395230107
3	12	21774203069824
4	12	14284560781520
5	12	5740726749982
6	12	1411096601882
7	12	208110470245
8	12	17687124357
9	12	806408237
0	13	5585570098779
1	13	29411529119953
2	13	66539470071515
3	13	84107457998963
4	13	64386361157952
5	13	30609548881164
6	13	9054201290414
7	13	1643244506251
8	13	177250020965
9	13	10728899748
0	14	12205700540189
1	14	73277826268921
2	14	189216344265264
3	14	274226496951554
4	14	242650784753301
5	14	134791120716747
6	14	47216184924696
7	14	10321530769562
8	14	1371589800364
9	14	105537006721
0	15	22982633419154
1	15	156854131880660
2	15	460435427395676
3	15	760851565107562
4	15	772394294934970
5	15	496508348530936
6	15	203413719289712
7	15	52695157639631
8	15	8440835698307
9	15	801093311786
0	16	37403560454003
1	16	289628370407587
2	16	963685362988077
3	16	1808038156651906
4	16	2093516661268800
5	16	1545426237897644
6	16	733272447508348
7	16	222282697649243
8	16	42214636592346
9	16	4833329469520
0	17	52719671477273
1	17	462666651214781
2	17	1741570529579296
3	17	3698380875687435
4	17	4862572330891717
5	17	4097456460444578
6	17	2234230526424063
7	17	784693001178832
8	17	174423553806069
9	17	23687686105880
0	18	64417373374006
1	18	640587105896951
2	18	2725081164687458
3	18	6536533916426094
4	18	9726462422509241
5	18	9312570187316455
6	18	5800069106004166
7	18	2341662203015419
8	18	603073292212698
9	18	95869562173617
0	19	68230886735854
1	19	769360289253842
2	19	3698186607249127
3	19	10008342180378646
4	19	16816875166917193
5	19	18231889119417274
6	19	12909173903632521
7	19	5954214830360130
8	19	1762478153468727
9	19	324553598384954
0	20	62577326889076
1	20	801380405107324
2	20	4355819469288898
3	20	13296872698782059
4	20	25197164389643517
5	20	30858455485200302
6	20	24752149929679480
7	20	12980561683876963
8	20	4388310585232409
9	20	928329744696015
0	21	49580509654710
1	21	723032298776840
2	21	4451277003026798
3	21	15337979810174426
4	21	32767006724181704
5	21	45267228043285810
6	21	41031922201326586
7	21	24377751282581675
8	21	9366220546830495
9	21	2261252256969300
0	22	33812649450208
1	22	563679851158256
2	22	3941266855467264
3	22	15354665169232340
4	22	37002346540163406
5	22	57636478638502184
6	22	58950171288292064
7	22	39577026650662521
8	22	17217285234583029
9	22	4719376411532948
0	23	19744223058152
1	23	378293317261316
2	23	3015942746477148
3	23	13320831339403610
4	23	36267934029037322
5	23	63726304641960220
6	23	73504447144119256
7	23	55676909814380361
8	23	27352186041485821
9	23	8478710353677524
0	24	9800341428012
1	24	217378956594220
2	24	1986868747901164
3	24	9988616549674528
4	24	30807414109063594
5	24	61153012788937892
6	24	79576918367143560
7	24	67963279908155364
8	24	37640365374147184
9	24	13156973689267006
0	25	4094458505640
1	25	106170474604912
2	25	1120743907754068
3	25	6448402406729116
4	25	22618534516994070
5	25	50852216998555288
6	25	74757062455472948
7	25	72010269641785104
8	25	44927034890231946
9	25	17674405655442646
0	26	1420609724032
1	26	43637838175936
2	26	537284722285880
3	26	3564293269097424
4	26	14296016258110548
5	26	36543542890913952
6	26	60841670832014132
7	26	66184459667869672
8	26	46524170871629050
9	26	20578992202439080
0	27	401818256928
1	27	14891305370512
2	27	216724994245840
3	27	1674215645435808
4	27	7735437564873408
5	27	22602848165743992
6	27	42778636074954024
7	27	52677439597528498
8	27	41769176393480330
9	27	20772259012908296
0	28	90247139568
1	28	4141342295152
2	28	72565820950384
3	28	661587832084000
4	28	3556265279761964
5	28	11965324521053920
6	28	25879144468861176
7	28	36204768753383608
8	28	32454200091016034
9	28	18162337499294696
0	29	15476027616
1	29	914207254848
2	29	19796328450896
3	29	216967352960176
4	29	1375132819132104
5	29	5380154189640768
6	29	13393812454609736
7	29	21397870505288160
8	29	21759602686373872
9	29	13729982990760096
0	30	1902273984
1	30	154032122304
2	30	4285614486624
3	30	57960052489792
4	30	441176605615248
5	30	2034028449879424
6	30	5885277526000304
7	30	10812899255248388
8	30	12535573853736776
9	30	8946355429595032
((((((((((((((xx)x)(xx))x)(xx))y)(((((xx)(xx))x)((xx)x))x))((xx)x))x)(((((yy)x)(xx))x)(xx)))((xx)x))x)(((((((((((yy)x)y)(yy))y)((yy)x))y)x)((((xy)(xy))x)y))((yy)x))((((xx)x)x)(xx))))(xy))
0	0	1
0	1	101
1	1	23
0	2	4312
1	2	2136
2	2	238
0	3	110866
1	3	86151
2	3	21009
3	3	1466
0	4	1956346
1	4	2103223
2	4	810272
3	4	124484
4	4	5995
0	5	25466156
1	5	35503904
2	5	18995047
3	5	4638512
4	5	492324
5	5	17189
0	6	255384350
1	6	444185104
2	6	308743074
3	6	105244387
4	6	17821287
5	6	1369204
6	6	35572
0	7	2031612018
1	7	4295387950
2	7	3725829345
3	7	1656777231
4	7	393207595
5	7	48296018
6	7	2753829
7	7	53852
0	8	13097375190
1	8	33036820445
2	8	34806810284
3	8	19372727014
4	8	6019545504
5	8	1039145874
6	8	94841411
7	8	4058101
8	8	59719
0	9	69557837433
1	9	206373503914
2	9	259011095064
3	9	175460890414
4	9	68445693843
5	9	15510181479
6	9	1993624791
7	9	136664023
8	9	4386586
9	9	47985
0	10	308289732563
1	10	1064070341720
2	10	1567784350550
3	10	1266783704658
4	10	602911339568
5	10	171908765200
6	10	29062092384
7	10	2810489152
8	10	144638029
9	10	3440030
0	11	1152289610777
1	11	4586620462521
2	11	7844352616253
3	11	7445731712421
4	11	4234819120799
5	11	1475994239045
6	11	314487678930
7	11	40064694313
8	11	2913447119
9	11	111183114
0	12	3663026055278
1	12	16698928916934
2	12	32858802986721
3	12	36208391654060
4	12	24226690742925
5	12	10106439567038
6	12	2635790296605
7	12	423774444231
8	12	40657927032
9	12	2195985387
0	13	9972015475483
1	13	51782059703911
2	13	116412914479532
3	13	147548259368718
4	13	114729685790816
5	13	56375563162648
6	13	17617121244160
7	13	3470562048623
8	13	420734739924
9	13	30028840579
0	14	23376840737747
1	14	137686454607606
2	14	351706813528247
3	14	508980883020995
4	14	455530965068168
5	14	260396579637027
6	14	95934136386688
7	14	22662221072478
8	14	3369334348545
9	14	304244827182
0	15	47394034499532
1	15	315615484958691
2	15	912145942195125
3	15	1498520903275934
4	15	1531922361393126
5	15	1008741374717731
6	15	432637209855851
7	15	120554404103451
8	15	21505546068597
9	15	2383757125592
0	16	83368827292311
1	16	626319267588061
2	16	2041410349660089
3	16	3790176714262706
4	16	4399156816246302
5	16	3310837229894486
6	16	1636608234618708
7	16	531086732218217
8	16	111791465628591
9	16	14876351791399
0	17	127526792385279
1	17	1079326952483958
2	17	3958569625963037
3	17	8278142551979324
4	17	10857643810081223
5	17	9281825597508666
6	17	5246201659338403
7	17	1962530843985666
8	17	481135524640004
9	17	75568981637266
0	18	169856716328552
1	18	1618640079803786
2	18	6670888875060831
3	18	15674866197380260
4	18	23149987959980110
5	18	22370055439097328
6	18	14365986619296870
7	18	6145278731797146
8	18	1736613401003668
9	18	317668488191446
0	19	197065633483866
1	19	2114951874421750
2	19	9788936042520994
3	19	25806491177918292
4	19	42806333928361769
5	19	46583491916559425
6	19	33821882302957308
7	19	16437608342395134
8	19	5310286940909542
9	19	1119366014944886
0	20	199039100360784
1	20	2408331870350862
2	20	12521552973040994
3	20	37011743666788478
4	20	68839256903856549
5	20	84139108890952043
6	20	68802386856361796
7	20	37798165248229744
8	20	13867481722529993
9	20	3339915094934650
0	21	174735163432862
1	21	2388370435880564
2	21	13964296346711918
3	21	46287544677027442
4	21	96458208202250797
5	21	132181303403329931
6	21	121394677545885848
7	21	75091024580015081
8	21	31123403401172276
9	21	8506222331593739
0	22	132973668759628
1	22	2059324958366646
2	22	13566853160297700
3	22	50481901792607990
4	22	117874339798701240
5	22	180937941449255508
6	22	186281243734231046
7	22	129364451417152457
8	22	60327477610825694
9	22	18608101472302043
0	23	87369521958568
1	23	1539465669028036
2	23	11462156308569932
3	23	47971428533335554
4	23	125627292278596474
5	23	216001608459127994
6	23	249041268359205568
7	23	193781134403997467
8	23	101363783161314400
9	23	35134748411326449
0	24	49288787544316
1	24	993709814175004
2	24	8397047558116776
3	24	39646221974958896
4	24	116664113506541848
5	24	224873556101895654
6	24	290312117297342292
7	24	252821546681035342
8	24	148021647271499187
9	24	57466580438107875
0	25	23695141361664
1	25	550728729221364
2	25	5311860360150616
3	25	28412504253979336
4	25	94221979284795786
5	25	203965656685494666
6	25	295063911978697960
7	25	287513747825239392
8	25	188171045546681678
9	25	81628718408123842
0	26	9609526735312
1	26	260073245891400
2	26	2884943012398928
3	26	17581841990309724
4	26	65981487698827804
5	26	160866511405018598
6	26	261208012741515316
7	26	284962061406912828
8	26	208388510293878046
9	26	100854838403556318
0	27	3243037704992
1	27	103587591446416
2	27	1334932276993536
3	27	9340086905916536
4	27	39891763350191928
5	27	109985950205682444
6	27	201005520629896240
7	27	245888029765281974
8	27	201001977804608102
9	27	108454414289415506
0	28	893883653424
1	28	34325771293104
2	28	520907114812576
3	28	4226744117201456
4	28	20701356054944588
5	28	64906458417415312
6	28	134039264784513216
7	28	184338284023394628
8	28	168669992475505192
9	28	101476031918591618
0	29	195970306752
1	29	9287138984720
2	29	169069312646816
3	29	1612708838078560
4	29	9149251210740032
5	29	32867068511510572
6	29	77117425913386008
7	29	119686552480916552
8	29	122872771621789548
9	29	82508858080365522
0	30	32854329216
1	30	1997922659616
2	30	44792478643264
3	30	511691086861040
4	30	3408409596839632
5	30	14169469648293064
6	30	38053056624860544
7	30	67002452720434444
8	30	77452649731772680
9	30	58165924097489096
