Chloramphenicol	1974M1-LZD;670-6B;ATCC_700669;CCRI_1974M2;Hungary19A-6;R6M2-PG	3063-00;4027-06;4075-00;5185-06;5652-06;5787-06;6735-05;6901-05;7286-06;7533-05;8190-05;CCRI_1974;JJA;Netherlands15B-37;NorthCarolina6A-23;P1031;R6;ST556		
Tetracycline	4075-00;5185-06;5652-06;670-6B;7286-06;7533-05;8190-05;ATCC_700669;Canada_MDR_19A;Canada_MDR_19F;G54;Hungary19A-6;ST556;SV35;SV36;Taiwan19F-14	1974M1-LZD;3063-00;4027-06;5787-06;6735-05;6901-05;AP200;CCRI_1974;CCRI_1974M2;JJA;Netherlands15B-37;NorthCarolina6A-23;R6;R6M2-PG		
Erythromycin	3063-00;4075-00;5185-06;5652-06;670-6B;7286-06;7533-05;8190-05;AP200;Canada_MDR_19A;Canada_MDR_19F;England14-9;G54;Hungary19A-6;NorthCarolina6A-23;SV35;SV36;Taiwan19F-14	1974M1-LZD;4027-06;5787-06;6735-05;6901-05;CCRI_1974;CCRI_1974M2;JJA;Netherlands15B-37;R6;R6M2-PG		
Penicillin2	1974M1-LZD;3063-00;4027-06;4075-00;5185-06;5652-06;5787-06;670-6B;6735-05;6963-05;7286-06;7533-05;7879-04;8190-05;ATCC_700669;CCRI_1974M2;Canada_MDR_19A;Canada_MDR_19F;Hungary19A-6;R6M2-PG;ST556;SV35;SV36;Taiwan19F-14	6901-05;AP200;CCRI_1974;England14-9;Netherlands15B-37;NorthCarolina6A-23;P1031;R6;TIGR4	JJA	
Penicillin1	3063-00;4075-00;5185-06;5652-06;5787-06;7286-06;7533-05;7879-04;8190-05;ATCC_700669;Canada_MDR_19A;Canada_MDR_19F;Hungary19A-6;ST556;SV35;SV36;Taiwan19F-14	6901-05;AP200;CCRI_1974;Netherlands15B-37;NorthCarolina6A-23;P1031;R6;TIGR4	1974M1-LZD;4027-06;670-6B;6735-05;6963-05;CCRI_1974M2;JJA;R6M2-PG	
