x
0	0	1
y
0	0	1
(xx)
0	0	1
0	1	2
(xy)
0	0	1
0	1	1
1	1	1
(yy)
0	0	1
0	1	0
1	1	2
((yy)y)
0	0	1
0	1	0
1	1	4
0	2	0
1	2	0
2	2	2
(((yy)y)y)
0	0	1
0	1	0
1	1	6
0	2	0
1	2	0
2	2	6
0	3	0
1	3	0
2	3	0
3	3	2
((xx)(yy))
0	0	1
0	1	3
1	1	3
0	2	0
1	2	8
((((yy)y)y)y)
0	0	1
0	1	0
1	1	8
0	2	0
1	2	0
2	2	12
0	3	0
1	3	0
2	3	0
3	3	8
0	4	0
1	4	0
2	4	0
3	4	0
4	4	2
(((xx)(yy))x)
0	0	1
0	1	5
1	1	3
0	2	3
1	2	11
0	3	0
1	3	8
(((yy)y)(xy))
0	0	1
0	1	2
1	1	6
0	2	0
1	2	9
2	2	7
0	3	0
1	3	0
2	3	4
3	3	2
((((xx)(yy))x)y)
0	0	1
0	1	6
1	1	4
0	2	3
1	2	16
2	2	3
0	3	0
1	3	11
2	3	11
0	4	0
1	4	0
2	4	8
((((yy)y)(xy))x)
0	0	1
0	1	4
1	1	6
0	2	2
1	2	15
2	2	7
0	3	0
1	3	9
2	3	11
3	3	2
0	4	0
1	4	0
2	4	4
3	4	2
(((((xx)(yy))x)y)x)
0	0	1
0	1	8
1	1	4
0	2	9
1	2	20
2	2	3
0	3	3
1	3	27
2	3	14
0	4	0
1	4	11
2	4	19
0	5	0
1	5	0
2	5	8
((((((xx)(yy))x)y)x)(xx))
0	0	1
0	1	12
1	1	4
0	2	35
1	2	32
2	2	3
0	3	30
1	3	87
2	3	23
0	4	9
1	4	92
2	4	61
0	5	0
1	5	33
2	5	65
0	6	0
1	6	0
2	6	24
(((((yy)y)y)y)(((yy)y)y))
0	0	1
0	1	0
1	1	16
0	2	0
1	2	0
2	2	80
0	3	0
1	3	0
2	3	0
3	3	148
0	4	0
1	4	0
2	4	0
3	4	0
4	4	148
0	5	0
1	5	0
2	5	0
3	5	0
4	5	0
5	5	86
0	6	0
1	6	0
2	6	0
3	6	0
4	6	0
5	6	0
6	6	28
0	7	0
1	7	0
2	7	0
3	7	0
4	7	0
5	7	0
6	7	0
7	7	4
(((((((xx)(yy))x)y)x)(xx))(((((yy)y)y)y)(((yy)y)y)))
0	0	1
0	1	13
1	1	21
0	2	35
1	2	252
2	2	151
0	3	30
1	3	682
2	3	1607
3	3	519
0	4	9
1	4	602
2	4	4340
3	4	4875
4	4	980
0	5	0
1	5	186
2	5	4029
3	5	13177
4	5	8500
5	5	1122
0	6	0
1	6	0
2	6	1305
3	6	12905
4	6	22936
5	6	9258
6	6	816
0	7	0
1	7	0
2	7	0
3	7	4380
4	7	23256
5	7	24914
6	7	6520
7	7	374
0	8	0
1	8	0
2	8	0
3	8	0
4	8	8136
5	8	25816
6	8	17490
7	8	2926
0	9	0
1	9	0
2	9	0
3	9	0
4	9	0
5	9	9210
6	9	18372
7	9	7822
0	10	0
1	10	0
2	10	0
3	10	0
4	10	0
5	10	0
6	10	6642
7	10	8286
0	11	0
1	11	0
2	11	0
3	11	0
4	11	0
5	11	0
6	11	0
7	11	3024
0	12	0
1	12	0
2	12	0
3	12	0
4	12	0
5	12	0
6	12	0
7	12	0
((((((((xx)(yy))x)y)x)(xx))(((((yy)y)y)y)(((yy)y)y)))(xx))
0	0	1
0	1	17
1	1	21
0	2	76
1	2	315
2	2	151
0	3	135
1	3	1438
2	3	2060
3	3	519
0	4	99
1	4	2648
2	4	9161
3	4	6432
4	4	980
0	5	27
1	5	1992
2	5	17049
3	5	27802
4	5	11440
5	5	1122
0	6	0
1	6	558
2	6	13392
3	6	52436
4	6	48436
5	6	12624
6	6	816
0	7	0
1	7	0
2	7	3915
3	7	43095
4	7	92064
5	7	52688
6	7	8968
7	7	374
0	8	0
1	8	0
2	8	0
3	8	13140
4	8	77904
5	8	100558
6	8	37050
7	8	4048
0	9	0
1	9	0
2	9	0
3	9	0
4	9	24408
5	9	86658
6	9	70842
7	9	16600
0	10	0
1	10	0
2	10	0
3	10	0
4	10	0
5	10	27630
6	10	61758
7	10	31752
0	11	0
1	11	0
2	11	0
3	11	0
4	11	0
5	11	0
6	11	19926
7	11	27882
0	12	0
1	12	0
2	12	0
3	12	0
4	12	0
5	12	0
6	12	0
7	12	9072
(((((((((xx)(yy))x)y)x)(xx))(((((yy)y)y)y)(((yy)y)y)))(xx))((((yy)y)(xy))x))
0	0	1
0	1	23
1	1	27
0	2	167
1	2	543
2	2	284
0	3	551
1	3	3790
2	3	5157
3	3	1574
0	4	926
1	4	12580
2	4	34039
3	4	26126
4	4	5193
0	5	792
1	5	21411
2	5	109120
3	5	162028
4	5	79470
5	5	10937
0	6	333
1	6	18676
2	6	184055
3	6	498595
4	6	466456
5	6	156729
6	6	15446
0	7	54
1	7	8070
2	7	163851
3	7	828707
4	7	1383184
5	7	878972
6	7	210384
7	7	15084
0	8	0
1	8	1359
2	8	73350
3	8	747960
4	8	2257631
5	8	2522152
6	8	1136388
7	8	197516
0	9	0
1	9	0
2	9	12960
3	9	345303
4	9	2043258
5	9	4029683
6	9	3164792
7	9	1033672
0	10	0
1	10	0
2	10	0
3	10	63747
4	10	960552
5	10	3616003
6	10	4935416
7	10	2799332
0	11	0
1	11	0
2	11	0
3	11	0
4	11	182736
5	11	1703472
6	11	4349598
7	11	4249902
0	12	0
1	12	0
2	12	0
3	12	0
4	12	0
5	12	327492
6	12	2023902
7	12	3648994
