x
0	0	1
y
0	0	1
(xx)
0	0	1
0	1	2
(xy)
0	0	1
0	1	1
1	1	1
(yy)
0	0	1
0	1	0
1	1	2
((xx)y)
0	0	1
0	1	3
1	1	1
0	2	0
1	2	2
((xy)y)
0	0	1
0	1	2
1	1	2
0	2	0
1	2	1
2	2	1
((yy)x)
0	0	1
0	1	1
1	1	3
0	2	0
1	2	2
((yy)y)
0	0	1
0	1	0
1	1	4
0	2	0
1	2	0
2	2	2
(((yy)x)(xx))
0	0	1
0	1	5
1	1	3
0	2	5
1	2	11
0	3	0
1	3	6
((((yy)x)(xx))y)
0	0	1
0	1	6
1	1	4
0	2	5
1	2	16
2	2	3
0	3	0
1	3	11
2	3	11
0	4	0
1	4	0
2	4	6
(((xx)y)((yy)y))
0	0	1
0	1	4
1	1	6
0	2	0
1	2	21
2	2	7
0	3	0
1	3	0
2	3	18
3	3	2
0	4	0
1	4	0
2	4	0
3	4	4
(((((yy)x)(xx))y)(yy))
0	0	1
0	1	7
1	1	7
0	2	5
1	2	36
2	2	15
0	3	0
1	3	26
2	3	59
3	3	9
0	4	0
1	4	0
2	4	39
3	4	33
0	5	0
1	5	0
2	5	0
3	5	18
((((((yy)x)(xx))y)(yy))x)
0	0	1
0	1	9
1	1	7
0	2	12
1	2	43
2	2	15
0	3	5
1	3	62
2	3	74
3	3	9
0	4	0
1	4	26
2	4	98
3	4	42
0	5	0
1	5	0
2	5	39
3	5	51
0	6	0
1	6	0
2	6	0
3	6	18
(((((((yy)x)(xx))y)(yy))x)(xy))
0	0	1
0	1	12
1	1	8
0	2	31
1	2	67
2	2	22
0	3	29
1	3	160
2	3	147
3	3	24
0	4	10
1	4	155
2	4	308
3	4	134
4	4	9
0	5	0
1	5	52
2	5	261
3	5	233
4	5	42
0	6	0
1	6	0
2	6	78
3	6	159
4	6	51
0	7	0
1	7	0
2	7	0
3	7	36
4	7	18
((((((((yy)x)(xx))y)(yy))x)(xy))(((xx)y)((yy)y)))
0	0	1
0	1	18
1	1	14
0	2	95
1	2	206
2	2	77
0	3	184
1	3	954
2	3	936
3	3	214
0	4	155
1	4	1780
2	4	3861
3	4	2241
4	4	323
0	5	50
1	5	1496
2	5	6852
3	5	8278
4	5	2986
5	5	266
0	6	0
1	6	470
2	6	5542
3	6	13505
4	6	9863
5	6	2193
6	6	111
0	7	0
1	7	0
2	7	1662
3	7	10070
4	7	14441
5	7	6435
6	7	820
7	7	18
0	8	0
1	8	0
2	8	0
3	8	2794
4	8	9613
5	8	8240
6	8	2115
7	8	120
0	9	0
1	9	0
2	9	0
3	9	0
4	9	2368
5	9	4692
6	9	2294
7	9	270
0	10	0
1	10	0
2	10	0
3	10	0
4	10	0
5	10	960
6	10	1032
7	10	240
0	11	0
1	11	0
2	11	0
3	11	0
4	11	0
5	11	0
6	11	144
7	11	72
(((((((((yy)x)(xx))y)(yy))x)(xy))(((xx)y)((yy)y)))y)
0	0	1
0	1	19
1	1	15
0	2	95
1	2	224
2	2	91
0	3	184
1	3	1049
2	3	1142
3	3	291
0	4	155
1	4	1964
2	4	4815
3	4	3177
4	4	537
0	5	50
1	5	1651
2	5	8632
3	5	12139
4	5	5227
5	5	589
0	6	0
1	6	520
2	6	7038
3	6	20357
4	6	18141
5	6	5179
6	6	377
0	7	0
1	7	0
2	7	2132
3	7	15612
4	7	27946
5	7	16298
6	7	3013
7	7	129
0	8	0
1	8	0
2	8	0
3	8	4456
4	8	19683
5	8	22681
6	8	8550
7	8	940
8	8	18
0	9	0
1	9	0
2	9	0
3	9	0
4	9	5162
5	9	14305
6	9	10534
7	9	2385
8	9	120
0	10	0
1	10	0
2	10	0
3	10	0
4	10	0
5	10	3328
6	10	5724
7	10	2534
8	10	270
0	11	0
1	11	0
2	11	0
3	11	0
4	11	0
5	11	0
6	11	1104
7	11	1104
8	11	240
((((((((((yy)x)(xx))y)(yy))x)(xy))(((xx)y)((yy)y)))y)((xy)y))
0	0	1
0	1	23
1	1	17
0	2	154
1	2	310
2	2	122
0	3	469
1	3	1931
2	3	1898
3	3	488
0	4	707
1	4	5574
2	4	10658
3	4	6649
4	4	1210
0	5	515
1	5	8037
2	5	28238
3	5	33491
4	5	14625
5	5	1954
0	6	150
1	6	5728
2	6	38355
3	6	80817
4	6	66092
5	6	21114
6	6	2092
0	7	0
1	7	1610
2	7	25987
3	7	101042
4	7	143854
5	7	85483
6	7	20318
7	7	1472
0	8	0
1	8	0
2	8	6916
3	8	63114
4	8	162140
5	8	165965
6	8	73505
7	8	12909
8	8	653
0	9	0
1	9	0
2	9	0
3	9	15500
4	9	90867
5	9	165272
6	9	125790
7	9	41616
8	9	5196
0	10	0
1	10	0
2	10	0
3	10	0
4	10	19942
5	10	80706
6	10	108300
7	10	61988
8	10	14890
0	11	0
1	11	0
2	11	0
3	11	0
4	11	0
5	11	15146
6	11	44399
7	11	44993
8	11	19037
(((((((((((yy)x)(xx))y)(yy))x)(xy))(((xx)y)((yy)y)))y)((xy)y))x)
0	0	1
0	1	25
1	1	17
0	2	177
1	2	327
2	2	122
0	3	623
1	3	2241
2	3	2020
3	3	488
0	4	1176
1	4	7505
2	4	12556
3	4	7137
4	4	1210
0	5	1222
1	5	13611
2	5	38896
3	5	40140
4	5	15835
5	5	1954
0	6	665
1	6	13765
2	6	66593
3	6	114308
4	6	80717
5	6	23068
6	6	2092
0	7	150
1	7	7338
2	7	64342
3	7	181859
4	7	209946
5	7	106597
6	7	22410
7	7	1472
0	8	0
1	8	1610
2	8	32903
3	8	164156
4	8	305994
5	8	251448
6	8	93823
7	8	14381
8	8	653
0	9	0
1	9	0
2	9	6916
3	9	78614
4	9	253007
5	9	331237
6	9	199295
7	9	54525
8	9	5849
0	10	0
1	10	0
2	10	0
3	10	15500
4	10	110809
5	10	245978
6	10	234090
7	10	103604
8	10	20086
0	11	0
1	11	0
2	11	0
3	11	0
4	11	19942
5	11	95852
6	11	152699
7	11	106981
8	11	33927
((((((((((((yy)x)(xx))y)(yy))x)(xy))(((xx)y)((yy)y)))y)((xy)y))x)y)
0	0	1
0	1	26
1	1	18
0	2	177
1	2	352
2	2	139
0	3	623
1	3	2418
2	3	2347
3	3	610
0	4	1176
1	4	8128
2	4	14797
3	4	9157
4	4	1698
0	5	1222
1	5	14787
2	5	46401
3	5	52696
4	5	22972
5	5	3164
0	6	665
1	6	14987
2	6	80204
3	6	153204
4	6	120857
5	6	38903
6	6	4046
0	7	150
1	7	8003
2	7	78107
3	7	248452
4	7	324254
5	7	187314
6	7	45478
7	7	3564
0	8	0
1	8	1760
2	8	40241
3	8	228498
4	8	487853
5	8	461394
6	8	200420
7	8	36791
8	8	2125
0	9	0
1	9	0
2	9	8526
3	9	111517
4	9	417163
5	9	637231
6	9	450743
7	9	148348
8	9	20230
0	10	0
1	10	0
2	10	0
3	10	22416
4	10	189423
5	10	498985
6	10	565327
7	10	302899
8	10	74611
0	11	0
1	11	0
2	11	0
3	11	0
4	11	35442
5	11	206661
6	11	398677
7	11	341071
8	11	137531
