x
0	0	1
y
0	0	1
(xx)
0	0	1
0	1	2
(xy)
0	0	1
0	1	1
1	1	1
(yy)
0	0	1
0	1	0
1	1	2
((xx)x)
0	0	1
0	1	4
0	2	2
((xx)y)
0	0	1
0	1	3
1	1	1
0	2	0
1	2	2
((xy)x)
0	0	1
0	1	3
1	1	1
0	2	1
1	2	1
((yy)x)
0	0	1
0	1	1
1	1	3
0	2	0
1	2	2
(((xx)x)y)
0	0	1
0	1	5
1	1	1
0	2	2
1	2	4
0	3	0
1	3	2
(((xx)y)x)
0	0	1
0	1	5
1	1	1
0	2	3
1	2	3
0	3	0
1	3	2
(((yy)x)x)
0	0	1
0	1	3
1	1	3
0	2	1
1	2	5
0	3	0
1	3	2
(((xx)x)(xx))
0	0	1
0	1	8
0	2	16
0	3	6
((((xx)y)x)((xx)x))
0	0	1
0	1	11
1	1	1
0	2	34
1	2	8
0	3	27
1	3	19
0	4	6
1	4	16
0	5	0
1	5	4
((((xx)x)(xx))((xx)x))
0	0	1
0	1	14
0	2	62
0	3	104
0	4	62
0	5	12
((((xx)x)y)(((yy)x)x))
0	0	1
0	1	10
1	1	4
0	2	26
1	2	31
2	2	3
0	3	14
1	3	57
2	3	17
0	4	2
1	4	34
2	4	28
0	5	0
1	5	6
2	5	18
0	6	0
1	6	0
2	6	4
(((((xx)x)y)(((yy)x)x))x)
0	0	1
0	1	12
1	1	4
0	2	36
1	2	35
2	2	3
0	3	40
1	3	88
2	3	20
0	4	16
1	4	91
2	4	45
0	5	2
1	5	40
2	5	46
0	6	0
1	6	6
2	6	22
0	7	0
1	7	0
2	7	4
((((((xx)x)y)(((yy)x)x))x)(yy))
0	0	1
0	1	13
1	1	7
0	2	36
1	2	73
2	2	15
0	3	40
1	3	196
2	3	125
3	3	9
0	4	16
1	4	211
2	4	309
3	4	60
0	5	2
1	5	88
2	5	319
3	5	135
0	6	0
1	6	12
2	6	142
3	6	138
0	7	0
1	7	0
2	7	22
3	7	66
0	8	0
1	8	0
2	8	0
3	8	12
(((((xx)x)(xx))((xx)x))((xy)x))
0	0	1
0	1	19
1	1	1
0	2	122
1	2	16
0	3	367
1	3	77
0	4	540
1	4	166
0	5	364
1	5	166
0	6	110
1	6	74
0	7	12
1	7	12
((((((xx)x)(xx))((xx)x))((xy)x))(xx))
0	0	1
0	1	23
1	1	1
0	2	181
1	2	19
0	3	733
1	3	125
0	4	1641
1	4	397
0	5	1984
1	5	664
0	6	1202
1	6	572
0	7	342
1	7	234
0	8	36
1	8	36
(((((((xx)x)(xx))((xx)x))((xy)x))(xx))x)
0	0	1
0	1	25
1	1	1
0	2	204
1	2	20
0	3	914
1	3	144
0	4	2374
1	4	522
0	5	3625
1	5	1061
0	6	3186
1	6	1236
0	7	1544
1	7	806
0	8	378
1	8	270
0	9	36
1	9	36
(((((((xx)x)y)(((yy)x)x))x)(yy))((yy)x))
0	0	1
0	1	16
1	1	10
0	2	63
1	2	131
2	2	36
0	3	112
1	3	478
2	3	388
3	3	54
0	4	96
1	4	795
2	4	1293
3	4	483
4	4	27
0	5	34
1	5	638
2	5	1962
3	5	1432
4	5	198
0	6	4
1	6	226
2	6	1466
3	6	1983
4	6	525
0	7	0
1	7	28
2	7	518
3	7	1406
4	7	684
0	8	0
1	8	0
2	8	68
3	8	494
4	8	474
0	9	0
1	9	0
2	9	0
3	9	68
4	9	168
0	10	0
1	10	0
2	10	0
3	10	0
4	10	24
((((((((xx)x)y)(((yy)x)x))x)(yy))((yy)x))y)
0	0	1
0	1	17
1	1	11
0	2	63
1	2	147
2	2	46
0	3	112
1	3	541
2	3	519
3	3	90
0	4	96
1	4	907
2	4	1771
3	4	871
4	4	81
0	5	34
1	5	734
2	5	2757
3	5	2725
4	5	681
5	5	27
0	6	4
1	6	260
2	6	2104
3	6	3945
4	6	1957
5	6	198
0	7	0
1	7	32
2	7	744
3	7	2872
4	7	2667
5	7	525
0	8	0
1	8	0
2	8	96
3	8	1012
4	8	1880
5	8	684
0	9	0
1	9	0
2	9	0
3	9	136
4	9	662
5	9	474
0	10	0
1	10	0
2	10	0
3	10	0
4	10	92
5	10	168
0	11	0
1	11	0
2	11	0
3	11	0
4	11	0
5	11	24
((((((((xx)x)(xx))((xx)x))((xy)x))(xx))x)(xx))
0	0	1
0	1	29
1	1	1
0	2	281
1	2	23
0	3	1526
1	3	204
0	4	5116
1	4	954
0	5	10747
1	5	2627
0	6	14061
1	6	4419
0	7	11102
1	7	4514
0	8	5010
1	8	2688
0	9	1170
1	9	846
0	10	108
1	10	108
(((((((((xx)x)y)(((yy)x)x))x)(yy))((yy)x))y)((xx)y))
0	0	1
0	1	22
1	1	12
0	2	134
1	2	211
2	2	57
0	3	364
1	3	1228
2	3	872
3	3	136
0	4	544
1	4	3309
2	4	4682
3	4	1842
4	4	171
0	5	418
1	5	4682
2	5	11830
3	5	9018
4	5	2056
5	5	108
0	6	140
1	6	3422
2	6	15680
3	6	21144
4	6	9148
5	6	1149
6	6	27
0	7	16
1	7	1144
2	7	10888
3	7	26270
4	7	19890
5	7	4636
6	7	252
0	8	0
1	8	136
2	8	3624
3	8	17452
4	8	23310
5	8	9365
6	8	921
0	9	0
1	9	0
2	9	448
3	9	5768
4	9	14938
5	9	10424
6	9	1734
0	10	0
1	10	0
2	10	0
3	10	736
4	10	4900
5	10	6486
6	10	1842
0	11	0
1	11	0
2	11	0
3	11	0
4	11	640
5	11	2112
6	11	1116
0	12	0
1	12	0
2	12	0
3	12	0
4	12	0
5	12	280
6	12	360
0	13	0
1	13	0
2	13	0
3	13	0
4	13	0
5	13	0
6	13	48
((((((((((xx)x)y)(((yy)x)x))x)(yy))((yy)x))y)((xx)y))(yy))
0	0	1
0	1	23
1	1	15
0	2	134
1	2	279
2	2	93
0	3	364
1	3	1630
2	3	1505
3	3	307
0	4	544
1	4	4401
2	4	8366
3	4	4458
4	4	579
0	5	418
1	5	6314
2	5	21757
3	5	23064
4	5	7582
5	5	621
0	6	140
1	6	4676
2	6	29726
3	6	56634
4	6	36202
5	6	7317
6	6	351
0	7	16
1	7	1564
2	7	21154
3	7	73310
4	7	83322
5	7	32080
6	7	3699
7	7	81
0	8	0
1	8	184
2	8	7056
3	8	50116
4	8	102120
5	8	69035
6	8	14829
7	8	756
0	9	0
1	9	0
2	9	856
3	9	16640
4	9	67294
5	9	80354
6	9	29829
7	9	2763
0	10	0
1	10	0
2	10	0
3	10	2080
4	10	22204
5	10	51300
6	10	33114
7	10	5202
0	11	0
1	11	0
2	11	0
3	11	0
4	11	2848
5	11	16812
6	11	20574
7	11	5526
0	12	0
1	12	0
2	12	0
3	12	0
4	12	0
5	12	2200
6	12	6696
7	12	3348
0	13	0
1	13	0
2	13	0
3	13	0
4	13	0
5	13	0
6	13	888
7	13	1080
0	14	0
1	14	0
2	14	0
3	14	0
4	14	0
5	14	0
6	14	0
7	14	144
(((((((((((xx)x)y)(((yy)x)x))x)(yy))((yy)x))y)((xx)y))(yy))((((xx)y)x)((xx)x)))
0	0	1
0	1	36
1	1	16
0	2	455
1	2	491
2	2	108
0	3	2815
1	3	5833
2	3	3020
3	3	400
0	4	10122
1	4	35760
2	4	33735
3	4	10391
4	4	886
0	5	23084
1	5	128559
2	5	198812
3	5	109171
4	5	21444
5	5	1200
0	6	34284
1	6	289688
2	6	693463
3	6	612031
4	6	211433
5	6	26983
6	6	972
0	7	32780
1	7	421139
2	7	1518519
3	7	2046490
4	7	1121927
5	7	248857
6	7	20196
7	7	432
0	8	19502
1	8	394058
2	8	2145097
3	8	4317089
4	8	3578194
5	8	1245800
6	8	173566
7	8	8235
8	8	81
0	9	6832
1	9	231172
2	9	1958076
3	9	5900732
4	9	7248126
5	9	3780941
6	9	817654
7	9	65679
8	9	1404
0	10	1272
1	10	80756
2	10	1130950
3	10	5246752
4	10	9577576
5	10	7349732
6	10	2358937
7	10	290607
8	10	10350
0	11	96
1	11	15168
2	11	393764
3	11	2981992
4	11	8301364
5	11	9399669
6	11	4403050
7	11	796875
8	11	42966
0	12	0
1	12	1168
2	12	74648
3	12	1034472
4	12	4646666
5	12	7958186
6	12	5460635
7	12	1429962
8	12	112059
0	13	0
1	13	0
2	13	5872
3	13	197920
4	13	1606328
5	13	4395076
6	13	4527008
7	13	1723206
8	13	193626
0	14	0
1	14	0
2	14	0
3	14	15904
4	14	309960
5	14	1515076
6	14	2471746
7	14	1401852
8	14	227142
0	15	0
1	15	0
2	15	0
3	15	0
4	15	25408
5	15	294656
6	15	850420
7	15	757968
8	15	181620
0	16	0
1	16	0
2	16	0
3	16	0
4	16	0
5	16	24592
6	16	166600
7	16	260448
8	16	97344
0	17	0
1	17	0
2	17	0
3	17	0
4	17	0
5	17	0
6	17	14128
7	17	51360
8	17	33408
0	18	0
1	18	0
2	18	0
3	18	0
4	18	0
5	18	0
6	18	0
7	18	4416
8	18	6624
0	19	0
1	19	0
2	19	0
3	19	0
4	19	0
5	19	0
6	19	0
7	19	0
8	19	576
((((((((((((xx)x)y)(((yy)x)x))x)(yy))((yy)x))y)((xx)y))(yy))((((xx)y)x)((xx)x)))((((((((xx)x)(xx))((xx)x))((xy)x))(xx))x)(xx)))
0	0	1
0	1	67
1	1	17
0	2	1845
1	2	1031
2	2	124
0	3	28388
1	3	26569
2	3	7119
3	3	508
0	4	284005
1	4	394919
2	4	175073
3	4	27895
4	4	1286
0	5	2012128
1	5	3877166
2	5	2509637
3	5	658528
4	5	67615
5	5	2086
0	6	10606256
1	6	27145922
2	6	23949823
3	6	9111261
4	6	1533483
5	6	104805
6	6	2172
0	7	42816860
1	7	141828915
2	7	163746015
3	7	84300412
4	7	20467045
5	7	2280936
6	7	103939
7	7	1404
0	8	134713386
1	8	568090776
2	8	837503953
3	8	560366400
4	8	183262898
5	8	29329639
6	8	2166844
7	8	63747
8	8	513
0	9	333818999
1	9	1773000143
2	9	3288373658
3	9	2790910582
4	9	1181186111
5	9	253698961
6	9	26801825
7	9	1270483
8	9	22005
0	10	655089786
1	10	4353311245
2	10	10067692361
3	10	10681188003
4	10	5710233373
5	10	1581920372
6	10	223547802
7	10	15091188
8	10	418443
0	11	1019468792
1	11	8452156449
2	11	24258809374
3	11	31899326427
4	11	21228298997
5	11	7404188102
6	11	1345613764
7	11	121140477
8	11	4764888
0	12	1255244638
1	12	12995980687
2	12	46234952273
3	12	75036036871
4	12	61632157295
5	12	26667253088
6	12	6083481481
7	12	702388038
8	12	36736695
0	13	1215846702
1	13	15797990589
2	13	69813830185
3	13	139736146623
4	13	141075231580
5	13	75071427363
6	13	21176495896
7	13	3060187347
8	13	204718347
0	14	918083030
1	14	15109082088
2	14	83403848279
3	14	206397045850
4	14	255962301123
5	14	166807886787
6	14	57668239556
7	14	10271647031
8	14	857562102
0	15	533570428
1	15	11276599458
2	15	78490519768
3	15	241544354018
4	15	368899904986
5	15	294217721149
6	15	124108308894
7	15	26996022843
8	15	2769053916
0	16	234526460
1	16	6489785894
2	16	57750116036
3	16	223088771830
4	16	422011839174
5	16	412936899989
6	16	212349116648
7	16	56139626857
8	16	7006697388
0	17	76057500
1	17	2831654828
2	17	32843404742
3	17	161457125396
4	17	381817651516
5	17	460951056495
6	17	289636141002
7	17	92953722900
8	17	14042545224
0	18	17538168
1	18	914174016
2	18	14201810384
3	18	90567468976
4	18	271365343042
5	18	407866715984
6	18	314839065883
7	18	122894880939
8	18	22433244165
0	19	2707056
1	19	210481928
2	19	4558079724
3	19	38743943348
4	19	149891007196
5	19	284189734870
6	19	271862418094
7	19	129712770224
8	19	28647298278
0	20	249696
1	20	32538480
2	20	1046717264
3	20	12341645536
4	20	63325397380
5	20	154286988746
6	20	185261038022
7	20	108939627144
8	20	29231868270
0	21	10368
1	21	3015072
2	21	161909664
3	21	2821995440
4	21	19980305684
5	21	64230268428
6	21	98574086198
7	21	72312488134
8	21	23747950098
0	22	0
1	22	126144
2	22	15058368
3	22	435998112
4	22	4538136152
5	22	20017970400
6	22	40294546360
7	22	37521309808
8	22	15247497768
0	23	0
1	23	0
2	23	634176
3	23	40617216
4	23	698260848
5	23	4500560360
6	23	12349177012
7	23	14965225148
8	23	7644895836
(((((((((((((xx)x)y)(((yy)x)x))x)(yy))((yy)x))y)((xx)y))(yy))((((xx)y)x)((xx)x)))((((((((xx)x)(xx))((xx)x))((xy)x))(xx))x)(xx)))x)
0	0	1
0	1	69
1	1	17
0	2	1912
1	2	1048
2	2	124
0	3	30233
1	3	27600
2	3	7243
3	3	508
0	4	312393
1	4	421488
2	4	182192
3	4	28403
4	4	1286
0	5	2296133
1	5	4272085
2	5	2684710
3	5	686423
4	5	68901
5	5	2086
0	6	12618384
1	6	31023088
2	6	26459460
3	6	9769789
4	6	1601098
5	6	106891
6	6	2172
0	7	53423116
1	7	168974837
2	7	187695838
3	7	93411673
4	7	22000528
5	7	2385741
6	7	106111
7	7	1404
0	8	177530246
1	8	709919691
2	8	1001249968
3	8	644666812
4	8	203729943
5	8	31610575
6	8	2270783
7	8	65151
8	8	513
0	9	468532385
1	9	2341090919
2	9	4125877611
3	9	3351276982
4	9	1364449009
5	9	283028600
6	9	28968669
7	9	1334230
8	9	22518
0	10	988908785
1	10	6126311388
2	10	13356066019
3	10	13472098585
4	10	6891419484
5	10	1835619333
6	10	250349627
7	10	16361671
8	10	440448
0	11	1674558578
1	11	12805467694
2	11	34326501735
3	11	42580514430
4	11	26938532370
5	11	8986108474
6	11	1569161566
7	11	136231665
8	11	5183331
0	12	2274713430
1	12	21448137136
2	12	70493761647
3	12	106935363298
4	12	82860456292
5	12	34071441190
6	12	7429095245
7	12	823528515
8	12	41501583
0	13	2471091340
1	13	28793971276
2	13	116048782458
3	13	214772183494
4	13	202707388875
5	13	101738680451
6	13	27259977377
7	13	3762575385
8	13	241455042
0	14	2133929732
1	14	30907072677
2	14	153217678464
3	14	346133192473
4	14	397037532703
5	14	241879314150
6	14	78844735452
7	14	13331834378
8	14	1062280449
0	15	1451653458
1	15	26385681546
2	15	161894368047
3	15	447941399868
4	15	624862206109
5	15	461025607936
6	15	181776548450
7	15	37267669874
8	15	3626616018
0	16	768096888
1	16	17766385352
2	16	136240635804
3	16	464633125848
4	16	790911744160
5	16	707154621138
6	16	336457425542
7	16	83135649700
8	16	9775751304
0	17	310583960
1	17	9321440722
2	17	90593520778
3	17	384545897226
4	17	803829490690
5	17	873887956484
6	17	501985257650
7	17	149093349757
8	17	21049242612
0	18	93595668
1	18	3745828844
2	18	47045215126
3	18	252024594372
4	18	653182994558
5	18	868817772479
6	18	604475206885
7	18	215848603839
8	18	36475789389
0	19	20245224
1	19	1124655944
2	19	18759890108
3	19	129311412324
4	19	421256350238
5	19	692056450854
6	19	586701483977
7	19	252607651163
8	19	51080542443
0	20	2956752
1	20	243020408
2	20	5604796988
3	20	51085588884
4	20	213216404576
5	20	438476723616
6	20	457123456116
7	20	238652397368
8	20	57879166548
0	21	260064
1	21	35553552
2	21	1208626928
3	21	15163640976
4	21	83305703064
5	21	218517257174
6	21	283835124220
7	21	181252115278
8	21	52979818368
0	22	10368
1	22	3141216
2	22	176968032
3	22	3257993552
4	22	24518441836
5	22	84248238828
6	22	138868632558
7	22	109833797942
8	22	38995447866
0	23	0
1	23	126144
2	23	15692544
3	23	476615328
4	23	5236397000
5	23	24518530760
6	23	52643723372
7	23	52486534956
8	23	22892393604
((((((((((((((xx)x)y)(((yy)x)x))x)(yy))((yy)x))y)((xx)y))(yy))((((xx)y)x)((xx)x)))((((((((xx)x)(xx))((xx)x))((xy)x))(xx))x)(xx)))x)((xx)x))
0	0	1
0	1	75
1	1	17
0	2	2263
1	2	1133
2	2	124
0	3	39933
1	3	32874
2	3	7863
3	3	508
0	4	467382
1	4	561584
2	4	218655
3	4	30943
4	4	1286
0	5	3918564
1	5	6434725
2	5	3610156
3	5	829454
4	5	75331
5	5	2086
0	6	24723835
1	6	53226489
2	6	40247394
3	6	13258710
4	6	1948175
5	6	117321
6	6	2172
0	7	121107302
1	7	332634447
2	7	325362558
3	7	143633464
4	7	30143820
5	7	2924368
6	7	116971
7	7	1404
0	8	469882594
1	8	1616840052
2	8	1992648078
3	8	1131264755
4	8	316934779
5	8	43753062
6	8	2805682
7	8	72171
8	8	513
0	9	1463029847
1	9	6228639048
2	9	9507519127
3	9	6761434388
4	9	2427099780
5	9	445852957
6	9	40534806
7	9	1662793
8	9	25083
0	10	3686631202
1	10	19251605365
2	10	35987954010
3	10	31517817119
4	10	14121124415
5	10	3313983483
6	10	399734538
7	10	23163123
8	10	554064
0	11	7556167273
1	11	48119206472
2	11	109358587052
3	11	116643561319
4	11	64124527808
5	11	18730262339
6	11	2878847039
7	11	220708480
8	11	7430607
0	12	12625323890
1	12	97728098382
2	12	268838402360
3	12	346782132618
4	12	231335957110
5	12	82673222226
6	12	15775602329
7	12	1537410182
8	12	68299134
0	13	17193775646
1	13	161645592344
2	13	537170594163
3	13	834610028844
4	13	670886735075
5	13	290068103349
6	13	67543776734
7	13	8152681290
8	13	459329619
0	14	19038813292
1	14	217773203329
2	14	874449114048
3	14	1633864836539
4	14	1576295389662
5	14	818715598785
6	14	230002812827
7	14	33791768333
8	14	2352558825
0	15	17063484798
1	15	238508987483
2	15	1160080325283
3	15	2608151729221
4	15	3015464647374
5	15	1873899539588
6	15	630520180464
7	15	111451992534
8	15	9420928347
0	16	12294223642
1	16	211508938436
2	16	1252147832967
3	16	3396606510134
4	16	4709297840111
5	16	3496041289118
6	16	1403029638696
7	16	296137667826
8	16	30033392292
0	17	7054375316
1	17	150924730574
2	17	1095585435892
3	17	3603594326202
4	17	6008112623708
5	17	5331712278046
6	17	2547825482260
7	17	639306938005
8	17	77181231168
0	18	3182709244
1	18	85885803158
2	18	772494090624
3	18	3104020332198
4	18	6254153936328
5	18	6652566797175
6	18	3787316346219
7	18	1127586652024
8	18	161273505057
0	19	1109391484
1	19	38496681608
2	19	435173007294
3	19	2158526178636
4	19	5294830304408
5	19	6783921226217
6	19	4613048033702
7	19	1630037369872
8	19	275557974612
0	20	291374208
1	20	13357957816
2	20	193494677780
3	20	1201691839248
4	20	3625864144882
5	20	5636394522844
6	20	4599581289771
7	20	1933387860861
8	20	386233457541
0	21	55534272
1	21	3499967480
2	21	66752392084
3	21	529214410044
4	21	1991900426420
5	21	3795013776962
6	21	3742855372754
7	21	1879729404444
8	21	444536735994
0	22	7224192
1	22	666949792
2	22	17429696648
3	22	181247376200
4	22	867479766308
5	22	2053787971930
6	22	2472291165890
7	22	1493399169068
8	22	419652872802
0	23	571968
1	23	86939328
2	23	3317786560
3	23	47093865040
4	23	294440012308
5	23	882794239248
6	23	1314657134602
7	23	964159755222
8	23	323829269670
(((((((((((((((xx)x)y)(((yy)x)x))x)(yy))((yy)x))y)((xx)y))(yy))((((xx)y)x)((xx)x)))((((((((xx)x)(xx))((xx)x))((xy)x))(xx))x)(xx)))x)((xx)x))x)
0	0	1
0	1	77
1	1	17
0	2	2338
1	2	1150
2	2	124
0	3	42196
1	3	34007
2	3	7987
3	3	508
0	4	507315
1	4	594458
2	4	226518
3	4	31451
4	4	1286
0	5	4385946
1	5	6996309
2	5	3828811
3	5	860397
4	5	76617
5	5	2086
0	6	28642399
1	6	59661214
2	6	43857550
3	6	14088164
4	6	2023506
5	6	119407
6	6	2172
0	7	145831137
1	7	385860936
2	7	365609952
3	7	156892174
4	7	32091995
5	7	3041689
6	7	119143
7	7	1404
0	8	590989896
1	8	1949474499
2	8	2318010636
3	8	1274898219
4	8	347078599
5	8	46677430
6	8	2922653
7	8	73575
8	8	513
0	9	1932912441
1	9	7845479100
2	9	11500167205
3	9	7892699143
4	9	2744034559
5	9	489606019
6	9	43340488
7	9	1734964
8	9	25596
0	10	5149661049
1	10	25480244413
2	10	45495473137
3	10	38279251507
4	10	16548224195
5	10	3759836440
6	10	440269344
7	10	24825916
8	10	579147
0	11	11242798475
1	11	67370811837
2	11	145346541062
3	11	148161378438
4	11	78245652223
5	11	22044245822
6	11	3278581577
7	11	243871603
8	11	7984671
0	12	20181491163
1	12	145847304854
2	12	378196989412
3	12	463425693937
4	12	295460484918
5	12	101403484565
6	12	18654449368
7	12	1758118662
8	12	75729741
0	13	29819099536
1	13	259373690726
2	13	806008996523
3	13	1181392161462
4	13	902222692185
5	13	372741325575
6	13	83319379063
7	13	9690091472
8	13	527628753
0	14	36232588938
1	14	379418795673
2	14	1411619708211
3	14	2468474865383
4	14	2247182124737
5	14	1108783702134
6	14	297546589561
7	14	41944449623
8	14	2811888444
0	15	36102298090
1	15	456282190812
2	15	2034529439331
3	15	4242016565760
4	15	4591760037036
5	15	2692615138373
6	15	860522993291
7	15	145243760867
8	15	11773487172
0	16	29357708440
1	16	450017925919
2	16	2412228158250
3	16	6004758239355
4	16	7724762487485
5	16	5369940828706
6	16	2033549819160
7	16	407589660360
8	16	39454320639
0	17	19348598958
1	17	362433669010
2	17	2347733268859
3	17	7000200836336
4	17	10717410463819
5	17	8827753567164
6	17	3950855120956
7	17	935444605831
8	17	107214623460
0	18	10237084560
1	18	236810533732
2	18	1868079526516
3	18	6707614658400
4	18	12262266560036
5	18	11984279075221
6	18	6335141828479
7	18	1766893590029
8	18	238454736225
0	19	4292100728
1	19	124382484766
2	19	1207667097918
3	19	5262546510834
4	19	11548984240736
5	19	13436488023392
6	19	8400364379921
7	19	2757624021896
8	19	436831479669
0	20	1400765692
1	20	51854639424
2	20	628667685074
3	20	3360218017884
4	20	8920694449290
5	20	12420315749061
6	20	9212629323473
7	20	3563425230733
8	20	661791432153
0	21	346908480
1	21	16857925296
2	21	260247069864
3	21	1730906249292
4	21	5617764571302
5	21	9431408299806
6	21	8342436662525
7	21	3813117265305
8	21	830770193535
0	22	62758464
1	22	4166917272
2	22	84182088732
3	22	710461786244
4	22	2859380192728
5	22	5848801748892
6	22	6215146538644
7	22	3373128573512
8	22	864189608796
0	23	7796160
1	23	753889120
2	23	20747483208
3	23	228341241240
4	23	1161919778616
5	23	2936582211178
6	23	3786948300492
7	23	2457558924290
8	23	743482142472
