M0881 IS-K IS-250 MSHR1132 21252 CIG290 21202 PS187 M1311 CA-347 A9635 M0877 CIG1524 21200 21194 S130 ST398 M140olga S1 S123 08BA02176 S100 21331 S94 71193 DR10 C427 21342 C160 552053 58-424 65-1322 C101 aureus_M1015 M809 M876 M899 68-397 E1410 M2 WBG10049 122051 TCH60 LCT-SA112 LCT-SA67 21195 M0408 21264 CGS00 21345 Btn1260 M1034 MN8 WW270397 M1256 A01793497 M0946 CIG1242 CIG1267 CIG1214 CIGC341D CIG1605 CIG1500 CIG1233 CIG149 CIG1176 M0513 EMRSA16 MRSA252 JKD6159 6850 21262 Tager_104 IS-160 SA40 PM1 M013 SA957 RF122 21235 21269 O11 O46 ED133 LGA251 D139 H19 21310 IS-105 MUM270 M1228 HO_5096_0412 KPL1845 21333 11819-97 S1800 103564 21343 21266 KLT6 21193 21305 M1216 KT314250 MSSA476 CIGC128 MW2 CIG1835 TCH70 MUM475 MUF256 ATCC_51811 USA300_TCH959 LVP5 GR1 VH221 PB32 21196 IS-55 PPUKM-775-2009 PPUKM-332-2009 PPUKM-261-2009 IS-157 IS-125 JKD6008 JKD6009 16K T0131 ST239 ATCC_BAA-39 21178 IS-189 Z172 TW20 Bmb9393 MRGR3 COL PSP1996 DSM_20231 RN4220 VC40 NCTC_8325 21189 IS-88 IS-24 IS-91 IS-111 CGS01 HI111 USA300_TCH1516 CO-23 HI049C HI049B HI010 HI010B USA300_FPR3757 A9754 HI022 HI049 HI168 HI013 MRSA131 MRSA177 M0531 M1 A5948 HIF003_B2N-C D30 21232 132 Newman 21282 21283 NN50 CIGC345D CIG547 930918-3 A9765 M0055 CIG1612 CIG1770 CIG1114 M0424 M0340 M0221 M0633 M1064 CIG2018 21209 M0312 M0831 M1223 M1462 M0468 M1007 M0396 KPL1828 CIGC93 3957 CO-08 LVP2 333 KTY21 120 3989 VH60 118 21334 M0239 21340 TCH130 21259 CN1 PPUKM-377-2009 CM05 ST22818412 ST22815532 ST22816035 ST22810388 ST22810497 Mu50-omega Mu50 Mu3 N315 M1510 NN54 06BA18369 091751 MR1 ED98 CIG1150 21272 IS-122 A9299 CF-Marseille CIGC340D 21201 VRS3a M0455 M0494 SA_ST125_MupR 21318 21236 A8117 A8115 IS-M IS-99 M1036 IS-3 M1291 VRS11b VRS11a M1078 M0871 M0210 M1083 M0676 M1142 M0404 M1321 M0363 M1092 M1044 VRS2 M1015 M0329 M0237 M0102 M1531 M1563 M0240 M0695 M0536 M0391 M0306 ECT-R_2 A9763 VRS10 VRS9 VRS6 VRS1 M0584 M1255 JH1 JH9 CGS03 M1286 M1016 M0330 VRS5 VRS7 M1373 M0964 A8819 M0478 M0792 CIGC348 M1520 M1309 M0450 M0066 M1170 M0252 M0489 M0328 M0006 M1076 M0844 M0692 M0646 M0571 M0001 M0144 M1199 M0104 M1061 M0045 M0770 M1565 M0415 M0602 M0586 M0934 M1521 M1109 M0823 M1244 M1063 M0280 M0799 M0270 M0197 M0719 M0150 M1466 M0547 M0529 M0660 M0648 M0663 M0539 M1103 M0294 M0077 M0103 A8796 M1119 M0350 M0334 M0200 M0288 M0326 M0171 M0060 M0375 M1367 21172 A6224 A10102 CIG1769 CIG1750 M0528 M0687 A6300 04-02981 M1253 CIG1057 CIG1165 M0108 SA16 M0279 M1407 M1188 M0035 A5937 M0994 M1275 H29 M0029 VRS8 CIG1096 CIG1213 M0347 M1224 M0978 B147830 B40950 B40723 B53639 CBD-635 M0927 M1463 M1556 M0562 M0822 M0944 M0493 M0460 M0999 M0173 M0943 M0374 M1374 M0216 M1578 M1068 M0075 M0780 VRS4 M1215 M1277 M1481 M0467 M0998 M1359 M1062 M1248 A9781 M1167 M0622 M0364 M1229 M1320 M0351 M1450 M0628 A9719 M1451 M1126 M0769 M1405 M1198 M1394 M0673 M1193 M1544 M0580 M1037 M0177 M0367 M0565 M0213 M0154 M0427 M0250 M1322 M0510 M1095 M0212 M0892 M0953 M1257 M0192 M0438 M1093 M1010 M0235 M1533 M1060 M0900 M0273
Rifampicin	? 
Fluoroquinolones	? 
Rifampicin	 
