M0881
aureus_IS-K
aureus_IS-250
aureus_MSHR1132
aureus_21252
aureus_CIG290
aureus_21202
aureus_PS187
M1311
CA-347
A9635
M0877
aureus_CIG1524
aureus_21200
aureus_21194
S130
aureus_ST398
aureus_M140olga
S1
S123
08BA02176
S100
aureus_21331
S94
aureus_71193
aureus_DR10
aureus_C427
aureus_21342
aureus_C160
aureus_552053
aureus_58-424
aureus_65-1322
aureus_C101
aureus_M1015
aureus_M809
aureus_M876
aureus_M899
aureus_68-397
aureus_E1410
M2
aureus_WBG10049
aureus_122051
aureus_TCH60
aureus_LCT-SA112
LCT-SA67
aureus_21195
M0408
aureus_21264
aureus_CGS00
aureus_21345
aureus_Btn1260
M1034
aureus_MN8
aureus_WW270397
M1256
aureus_A01793497
M0946
aureus_CIG1242
aureus_CIG1267
aureus_CIG1214
aureus_CIGC341D
aureus_CIG1605
aureus_CIG1500
aureus_CIG1233
aureus_CIG149
aureus_CIG1176
M0513
aureus_EMRSA16
aureus_MRSA252
aureus_JKD6159
aureus_6850
aureus_21262
aureus_Tager_104
aureus_IS-160
aureus_SA40
PM1
aureus_M013
aureus_SA957
RF122
aureus_21235
aureus_21269
O11
O46
aureus_ED133
aureus_LGA251
aureus_D139
aureus_H19
aureus_21310
aureus_IS-105
MUM270
M1228
aureus_HO_5096_0412
aureus_KPL1845
aureus_21333
aureus_11819-97
aureus_S1800
aureus_103564
aureus_21343
aureus_21266
KLT6
aureus_21193
aureus_21305
M1216
KT314250
aureus_MSSA476
aureus_CIGC128
aureus_MW2
aureus_CIG1835
aureus_TCH70
MUM475
MUF256
aureus_ATCC_51811
aureus_USA300_TCH959
LVP5
aureus_GR1
VH221
PB32
aureus_21196
aureus_IS-55
PPUKM-775-2009
PPUKM-332-2009
PPUKM-261-2009
aureus_IS-157
aureus_IS-125
aureus_JKD6008
aureus_JKD6009
16K
aureus_T0131
ST239
aureus_ATCC_BAA-39
aureus_21178
aureus_IS-189
aureus_Z172
aureus_TW20
Bmb9393
aureus_MRGR3
aureus_COL
aureus_PSP1996
aureus_DSM_20231
RN4220
aureus_VC40
aureus_NCTC_8325
aureus_21189
aureus_IS-88
aureus_IS-24
aureus_IS-91
aureus_IS-111
aureus_CGS01
HI111
aureus_USA300_TCH1516
aureus_CO-23
HI049C
HI049B
HI010
HI010B
aureus_USA300_FPR3757
A9754
HI022
HI049
HI168
HI013
aureus_MRSA131
aureus_MRSA177
M0531
M1
A5948
HIF003_B2N-C
D30
aureus_21232
aureus_132
aureus_Newman
aureus_21282
aureus_21283
aureus_NN50
aureus_CIGC345D
aureus_CIG547
930918-3
A9765
M0055
aureus_CIG1612
aureus_CIG1770
aureus_CIG1114
M0424
M0340
M0221
M0633
M1064
aureus_CIG2018
aureus_21209
M0312
M0831
M1223
M1462
M0468
M1007
M0396
aureus_KPL1828
aureus_CIGC93
3957
aureus_CO-08
LVP2
aureus_333
KTY21
aureus_120
aureus_3989
aureus_VH60
aureus_118
aureus_21334
M0239
aureus_21340
aureus_TCH130
aureus_21259
aureus_CN1
PPUKM-377-2009
aureus_CM05
ST22818412
ST22815532
ST22816035
ST22810388
ST22810497
aureus_Mu50-omega
aureus_Mu50
aureus_Mu3
aureus_N315
M1510
NN54
aureus_06BA18369
aureus_091751
aureus_MR1
aureus_ED98
aureus_CIG1150
aureus_21272
aureus_IS-122
A9299
aureus_CF-Marseille
aureus_CIGC340D
aureus_21201
aureus_VRS3a
M0455
M0494
SA_ST125_MupR
aureus_21318
aureus_21236
A8117
A8115
aureus_IS-M
aureus_IS-99
M1036
aureus_IS-3
M1291
aureus_VRS11b
aureus_VRS11a
M1078
M0871
M0210
M1083
M0676
M1142
M0404
M1321
M0363
M1092
M1044
aureus_VRS2
M1015
M0329
M0237
M0102
M1531
M1563
M0240
M0695
M0536
M0391
M0306
aureus_ECT-R_2
A9763
aureus_VRS10
aureus_VRS9
aureus_VRS6
aureus_VRS1
M0584
M1255
aureus_JH1
aureus_JH9
aureus_CGS03
M1286
M1016
M0330
aureus_VRS5
aureus_VRS7
M1373
M0964
A8819
M0478
M0792
aureus_CIGC348
M1520
M1309
M0450
M0066
M1170
M0252
M0489
M0328
M0006
M1076
M0844
M0692
M0646
M0571
M0001
M0144
M1199
M0104
M1061
M0045
M0770
M1565
M0415
M0602
M0586
M0934
M1521
M1109
M0823
M1244
M1063
M0280
M0799
M0270
M0197
M0719
M0150
M1466
M0547
M0529
M0660
M0648
M0663
M0539
M1103
M0294
M0077
M0103
A8796
M1119
M0350
M0334
M0200
M0288
M0326
M0171
M0060
M0375
M1367
aureus_21172
A6224
A10102
aureus_CIG1769
aureus_CIG1750
M0528
M0687
A6300
04-02981
M1253
aureus_CIG1057
aureus_CIG1165
M0108
SA16
M0279
M1407
M1188
M0035
A5937
M0994
M1275
H29
M0029
aureus_VRS8
aureus_CIG1096
aureus_CIG1213
M0347
M1224
M0978
B147830
B40950
B40723
B53639
aureus_CBD-635
M0927
M1463
M1556
M0562
M0822
M0944
M0493
M0460
M0999
M0173
M0943
M0374
M1374
M0216
M1578
M1068
M0075
M0780
aureus_VRS4
M1215
M1277
M1481
M0467
M0998
M1359
M1062
M1248
A9781
M1167
M0622
M0364
M1229
M1320
M0351
M1450
M0628
A9719
M1451
M1126
M0769
M1405
M1198
M1394
M0673
M1193
M1544
M0580
M1037
M0177
M0367
M0565
M0213
M0154
M0427
M0250
M1322
M0510
M1095
M0212
M0892
M0953
M1257
M0192
M0438
M1093
M1010
M0235
M1533
M1060
M0900
M0273
