GTBDR00860
GTBDR02014
GTBDR02590
GTBDR01967
GTBDR00858
GTBDR01956
GTBDR01733
GTBDR01972
GTBDR01975
GTBDR01777
GTBDR00857
GTBDR02593
GTBDR02062
GTBDR02051
GTBDR02015
GTBDR00859
GTBDR00856
GTBDR01970
GTBDR01969
GTBDR01958
GTBDR01959
GTBDR01950
GTBDR02120
GTBDR01953
GTBDR01951
GTBDR01921
GTBDR01916
GTBDR02039
GTBDR01957
GTBDR02119
GTBDR01799
GTBDR01924
GTBDR01823
GTBDR00212
GTBDR02448
GTBDR02584
GTBDR02515
GTBDR02443
GTBDR02442
GTBDR02511
GTBDR02496
GTBDR02355
GTBDR02495
GTBDR02392
GTBDR02331
GTBDR02258
GTBDR02257
GTBDR02438
GTBDR02420
GTBDR02310
GTBDR16798
GTBDR14707
GTBDR01917
GTBDR01964
GTBDR01987
GTBDR01825
GTBDR01158
GTBDR01145
GTBDR02090
GTBDR00757
GTBDR02397
GTBDR00760
GTBDR01795
GTBDR01933
GTBDR01922
GTBDR00350
GTBDR00345
GTBDR00348
GTBDR01851
GTBDR01848
GTBDR01102
GTBDR00601
GTBDR01133
GTBDR01047
GTBDR01014
GTBDR01012
GTBDR01837
GTBDR00415
GTBDR02303
GTBDR02592
GTBDR02589
GTBDR02506
GTBDR02388
GTBDR01948
GTBDR01947
GTBDR02596
GTBDR01743
GTBDR00759
GTBDR00807
GTBDR01742
GTBDR02118
GTBDR02045
GTBDR02040
GTBDR02037
GTBDR02021
GTBDR01979
GTBDR01927
GTBDR01918
GTBDR01163
GTBDR01154
GTBDR01144
GTBDR00750
GTBDR00319
GTBDR02401
GTBDR02479
GTBDR02364
GTBDR01032
GTBDR00795
GTBDR00798
GTBDR19458
GTBDR19464
GTBDR19461
GTBDR19460
GTBDR19457
GTBDR02597
GTBDR02319
GTBDR00199
GTBDR00138
GTBDR00344
GTBDR01790
GTBDR01724
GTBDR01730
GTBDR01750
GTBDR01767
GTBDR01747
GTBDR01722
GTBDR02071
GTBDR02499
GTBDR02398
GTBDR02453
GTBDR00816
GTBDR02492
GTBDR01280
GTBDR02514
GTBDR02233
GTBDR02225
GTBDR02502
GTBDR02234
GTBDR02230
GTBDR02232
GTBDR02414
GTBDR02335
GTBDR02224
GTBDR00735
GTBDR02217
GTBDR02210
GTBDR00781
GTBDR01136
GTBDR01100
GTBDR02068
GTBDR01973
GTBDR00249
GTBDR00246
GTBDR02525
GTBDR19452
GTBDR19451
GTBDR02485
GTBDR01323
GTBDR01307
GTBDR00405
GTBDR02478
GTBDR01284
GTBDR02439
GTBDR02365
GTBDR02281
GTBDR02311
GTBDR02306
GTBDR02465
GTBDR02280
GTBDR02254
GTBDR02523
GTBDR02342
GTBDR02440
GTBDR02346
GTBDR02219
GTBDR02519
GTBDR02339
GTBDR02431
GTBDR02378
GTBDR02260
GTBDR02326
GTBDR02527
GTBDR02385
GTBDR02459
GTBDR02216
GTBDR00318
GTBDR00333
GTBDR02387
GTBDR00854
GTBDR00792
GTBDR00791
GTBDR02486
GTBDR00733
GTBDR19448
GTBDR00341
GTBDR02585
GTBDR02451
GTBDR02226
GTBDR01297
GTBDR01281
GTBDR01251
GTBDR00848
GTBDR00832
GTBDR00811
GTBDR00330
GTBDR00841
GTBDR02409
GTBDR01041
GTBDR01037
GTBDR02298
GTBDR00764
GTBDR00734
GTBDR21928
GTBDR15094
GTBDR15092
GTBDR02450
GTBDR00347
GTBDR02477
GTBDR02413
GTBDR00758
GTBDR02060
GTBDR00353
GTBDR01101
GTBDR01230
GTBDR01071
GTBDR00801
GTBDR02231
GTBDR02202
GTBDR01099
GTBDR02578
GTBDR02069
GTBDR02059
GTBDR00771
GTBDR02282
GTBDR02206
GTBDR02027
GTBDR01820
GTBDR01833
GTBDR01720
GTBDR01283
GTBDR02237
GTBDR02366
GTBDR02203
GTBDR02029
GTBDR01202
GTBDR01196
GTBDR01268
GTBDR01266
GTBDR00862
GTBDR00810
GTBDR00805
GTBDR02111
GTBDR02107
GTBDR00749
GTBDR02047
GTBDR01718
GTBDR00849
GTBDR02095
GTBDR01843
GTBDR21931
GTBDR02521
GTBDR02269
GTBDR02117
GTBDR02114
GTBDR02112
GTBDR02110
GTBDR02109
GTBDR02105
GTBDR02103
GTBDR02102
GTBDR02087
GTBDR02081
GTBDR02080
GTBDR02065
GTBDR02063
GTBDR02042
GTBDR02038
GTBDR02025
GTBDR01963
GTBDR01856
GTBDR01831
GTBDR01808
GTBDR01753
GTBDR01707
GTBDR01616
GTBDR01245
GTBDR00714
GTBDR00452
GTBDR00310
GTBDR02070
GTBDR01854
GTBDR02290
GTBDR00817
GTBDR01143
GTBDR01131
GTBDR01056
GTBDR01044
GTBDR00336
GTBDR00720
GTBDR00334
GTBDR02215
GTBDR02214
GTBDR02204
GTBDR02213
GTBDR00701
GTBDR00799
GTBDR01231
GTBDR01217
GTBDR01159
GTBDR01130
GTBDR01006
GTBDR01741
GTBDR02526
GTBDR02221
GTBDR02228
GTBDR02218
GTBDR02211
GTBDR02348
GTBDR02278
GTBDR02406
GTBDR02474
GTBDR02400
GTBDR01123
GTBDR00820
GTBDR01754
GTBDR02510
GTBDR02078
GTBDR00459
GTBDR00200
GTBDR00768
GTBDR00747
GTBDR01043
GTBDR01029
GTBDR00244
GTBDR01804
GTBDR02064
GTBDR01824
GTBDR00736
GTBDR21924
GTBDR21923
GTBDR15097
GTBDR21922
GTBDR15107
GTBDR21933
GTBDR15104
GTBDR21925
GTBDR15093
GTBDR01966
GTBDR11802
GTBDR02273
GTBDR16799
GTBDR14708
GTBDR02104
GTBDR02058
GTBDR01850
GTBDR00247
GTBDR01605
GTBDR01588
GTBDR01587
GTBDR01598
GTBDR01615
GTBDR01604
GTBDR01603
GTBDR01599
GTBDR01595
GTBDR01594
GTBDR01593
GTBDR01592
GTBDR01591
GTBDR01590
GTBDR01589
GTBDR01586
GTBDR01585
GTBDR01584
GTBDR01583
GTBDR22306
GTBDR01597
GTBDR22307
GTBDR01571
GTBDR01623
GTBDR01601
GTBDR00433
GTBDR00214
GTBDR01785
GTBDR02334
GTBDR02458
GTBDR02328
GTBDR02509
GTBDR02421
GTBDR02321
GTBDR02250
GTBDR02344
GTBDR02240
GTBDR01105
GTBDR01375
GTBDR02302
GTBDR02241
GTBDR02424
GTBDR02261
GTBDR01060
GTBDR00802
GTBDR01018
GTBDR00823
GTBDR00606
GTBDR00605
GTBDR02367
GTBDR01363
GTBDR01049
GTBDR01033
GTBDR01021
GTBDR01017
GTBDR00853
GTBDR00842
GTBDR00836
GTBDR00815
GTBDR00710
GTBDR00335
GTBDR01345
GTBDR02329
GTBDR02505
GTBDR02287
GTBDR02430
GTBDR02300
GTBDR00756
GTBDR02470
GTBDR02353
GTBDR02115
GTBDR00745
GTBDR00728
GTBDR00813
GTBDR02389
GTBDR01020
GTBDR00713
GTBDR01339
GTBDR01328
GTBDR01308
GTBDR02396
GTBDR02220
GTBDR02208
GTBDR02408
GTBDR02446
GTBDR02441
GTBDR02318
GTBDR02452
GTBDR01348
GTBDR01338
GTBDR01336
GTBDR01324
GTBDR01210
GTBDR00826
GTBDR00709
GTBDR02418
GTBDR00833
GTBDR02314
GTBDR00602
GTBDR01166
GTBDR01058
GTBDR00761
GTBDR01184
GTBDR01774
GTBDR00198
GTBDR00173
GTBDR01803
GTBDR01802
GTBDR01938
GTBDR01907
GTBDR00718
GTBDR00248
GTBDR02272
GTBDR00136
GTBDR00861
GTBDR00102
GTBDR02268
GTBDR00264
GTBDR01806
GTBDR01751
GTBDR00776
GTBDR00343
GTBDR01904
GTBDR01945
GTBDR01903
GTBDR01902
GTBDR02262
GTBDR02247
GTBDR00269
GTBDR01942
GTBDR01911
GTBDR01901
GTBDR01827
GTBDR01740
GTBDR01909
GTBDR01905
GTBDR02089
GTBDR00349
GTBDR00262
GTBDR00447
GTBDR00354
GTBDR00346
GTBDR02046
GTBDR01943
GTBDR01925
GTBDR01841
GTBDR01937
GTBDR01914
GTBDR00254
GTBDR01834
GTBDR02075
GTBDR01813
GTBDR02076
GTBDR02073
GTBDR02074
GTBDR00252
GTBDR01912
GTBDR01738
GTBDR01995
GTBDR01983
GTBDR01941
GTBDR01780
GTBDR01789
GTBDR01704
GTBDR01822
GTBDR01798
GTBDR01703
GTBDR00460
GTBDR01815
GTBDR01713
GTBDR01762
GTBDR01768
GTBDR01723
GTBDR01784
GTBDR01954
GTBDR01855
GTBDR01836
GTBDR02088
GTBDR01766
GTBDR02084
GTBDR01934
GTBDR01770
GTBDR00456
GTBDR00303
GTBDR00221
GTBDR02579
GTBDR02416
GTBDR02340
GTBDR02415
GTBDR02494
GTBDR02289
GTBDR02309
GTBDR02271
GTBDR19456
GTBDR02349
GTBDR00782
GTBDR00206
GTBDR02049
GTBDR01282
GTBDR02425
GTBDR02263
GTBDR00715
GTBDR01757
GTBDR00260
GTBDR00243
GTBDR00157
GTBDR01371
GTBDR00238
GTBDR00140
GTBDR02461
GTBDR00796
GTBDR00793
GTBDR00784
GTBDR02493
GTBDR00769
GTBDR19455
GTBDR01931
GTBDR11800
GTBDR00457
GTBDR00409
GTBDR00450
GTBDR00442
GTBDR00404
GTBDR02517
GTBDR00846
GTBDR01556
GTBDR21926
GTBDR01574
GTBDR01565
GTBDR01562
GTBDR15088
GTBDR01579
GTBDR01568
GTBDR01560
GTBDR01558
GTBDR01811
GTBDR02524
GTBDR02481
GTBDR02422
GTBDR00852
GTBDR00847
GTBDR01776
GTBDR02449
GTBDR02352
GTBDR02274
GTBDR00175
GTBDR01858
GTBDR11803
GTBDR01765
GTBDR00210
GTBDR00123
GTBDR00125
GTBDR00127
GTBDR00124
GTBDR00730
GTBDR00130
GTBDR00119
GTBDR00118
GTBDR00164
GTBDR00112
GTBDR11798
GTBDR00145
GTBDR00422
GTBDR00407
GTBDR02399
GTBDR02361
GTBDR00424
GTBDR00423
GTBDR02317
GTBDR02251
GTBDR00427
GTBDR00167
GTBDR01926
GTBDR01745
GTBDR01772
GTBDR01764
GTBDR01739
GTBDR01919
GTBDR01773
GTBDR01735
GTBDR01939
GTBDR02507
GTBDR01386
GTBDR01384
GTBDR01356
GTBDR01944
GTBDR01940
GTBDR01930
GTBDR02000
GTBDR02006
GTBDR02024
GTBDR01709
GTBDR01980
GTBDR02002
GTBDR01977
GTBDR01839
GTBDR00417
GTBDR01337
GTBDR01335
GTBDR01326
GTBDR01534
GTBDR01627
GTBDR01539
GTBDR01544
GTBDR01543
GTBDR01542
GTBDR01536
GTBDR01624
GTBDR01526
GTBDR01513
GTBDR01609
GTBDR01625
GTBDR01626
GTBDR01547
GTBDR01546
GTBDR01527
GTBDR01525
GTBDR01515
GTBDR01632
GTBDR01629
GTBDR01630
GTBDR01622
GTBDR01613
GTBDR01610
GTBDR01608
GTBDR01545
GTBDR01541
GTBDR01519
GTBDR01504
GTBDR01503
GTBDR01510
GTBDR01521
GTBDR01524
GTBDR01631
GTBDR01548
GTBDR01540
GTBDR01538
GTBDR01537
GTBDR01535
GTBDR01533
GTBDR01531
GTBDR01523
GTBDR01522
GTBDR01520
GTBDR01518
GTBDR01516
GTBDR01514
GTBDR01512
GTBDR01511
GTBDR01508
GTBDR01507
GTBDR01506
GTBDR01505
GTBDR01502
GTBDR01501
GTBDR02279
GTBDR01575
GTBDR22305
GTBDR01563
GTBDR01549
GTBDR01935
GTBDR01842
GTBDR02358
GTBDR02466
GTBDR00744
GTBDR02393
GTBDR01778
GTBDR01561
GTBDR01555
GTBDR01564
GTBDR01550
GTBDR11796
GTBDR02377
GTBDR02432
GTBDR02277
GTBDR21927
GTBDR11801
GTBDR02013
GTBDR01949
GTBDR01771
GTBDR01577
GTBDR01576
GTBDR01986
GTBDR01621
GTBDR01620
GTBDR01614
GTBDR01582
GTBDR01580
GTBDR01566
GTBDR02012
GTBDR01581
GTBDR01530
GTBDR01528
GTBDR02023
GTBDR02017
GTBDR02016
GTBDR02035
GTBDR01857
GTBDR01984
GTBDR00436
GTBDR02005
GTBDR01985
GTBDR02113
GTBDR02099
GTBDR02061
GTBDR01990
GTBDR01982
GTBDR01981
GTBDR01978
GTBDR01976
GTBDR01910
GTBDR01797
GTBDR01618
GTBDR01606
GTBDR00825
GTBDR00316
GTBDR00232
GTBDR02003
GTBDR01999
GTBDR01997
GTBDR01968
GTBDR00448
GTBDR00218
GTBDR00174
GTBDR00196
GTBDR00195
GTBDR00172
GTBDR01763
GTBDR02066
GTBDR02501
GTBDR02472
GTBDR02285
GTBDR02255
GTBDR02238
GTBDR02209
GTBDR01372
GTBDR00778
GTBDR00702
GTBDR00726
GTBDR01028
GTBDR02010
GTBDR01775
GTBDR02057
GTBDR02041
GTBDR02009
GTBDR01996
GTBDR01932
GTBDR01817
GTBDR01737
GTBDR00845
GTBDR00814
GTBDR00406
GTBDR01788
GTBDR00255
GTBDR00171
GTBDR01928
GTBDR01915
GTBDR01908
GTBDR02048
GTBDR01758
GTBDR00134
GTBDR00256
GTBDR00800
GTBDR02482
GTBDR00721
GTBDR02096
GTBDR02092
GTBDR01845
GTBDR00222
GTBDR00120
GTBDR00106
GTBDR01913
GTBDR01793
GTBDR01840
GTBDR01853
GTBDR01835
GTBDR02591
GTBDR01962
GTBDR01929
GTBDR01755
GTBDR01725
GTBDR02043
GTBDR02359
GTBDR00773
GTBDR01830
GTBDR02082
GTBDR02085
GTBDR02083
GTBDR01729
GTBDR01719
GTBDR01142
GTBDR01108
GTBDR02487
GTBDR02475
GTBDR02249
GTBDR02227
GTBDR01370
GTBDR01362
GTBDR01361
GTBDR01357
GTBDR02362
GTBDR00835
GTBDR02207
GTBDR02284
GTBDR00777
GTBDR00731
GTBDR01349
GTBDR01010
GTBDR00770
GTBDR00741
GTBDR00740
GTBDR00357
GTBDR02462
GTBDR01200
GTBDR02508
GTBDR02498
GTBDR02357
GTBDR00789
GTBDR00763
GTBDR00604
GTBDR02410
GTBDR02252
GTBDR00711
GTBDR01160
GTBDR01042
GTBDR01244
GTBDR00708
GTBDR00703
GTBDR00783
GTBDR01256
GTBDR02384
GTBDR02243
GTBDR02259
GTBDR02456
GTBDR02497
GTBDR02467
GTBDR02205
GTBDR01296
GTBDR01127
GTBDR01031
GTBDR01347
GTBDR02417
GTBDR02324
GTBDR01289
GTBDR01229
GTBDR01180
GTBDR01138
GTBDR01122
GTBDR00767
GTBDR02483
GTBDR01054
GTBDR01027
GTBDR02223
GTBDR02212
GTBDR01791
GTBDR01232
GTBDR01225
GTBDR01212
GTBDR01204
GTBDR01194
GTBDR01146
GTBDR00855
GTBDR00788
GTBDR01051
GTBDR01045
GTBDR00755
GTBDR00751
GTBDR00737
GTBDR00725
GTBDR00719
GTBDR00340
GTBDR02019
GTBDR02007
GTBDR01993
GTBDR02018
GTBDR02020
GTBDR01998
GTBDR01992
GTBDR01063
GTBDR00779
GTBDR01828
GTBDR01744
GTBDR01955
GTBDR01759
GTBDR01756
GTBDR00420
GTBDR01832
GTBDR02004
GTBDR02054
GTBDR01989
GTBDR02022
GTBDR01994
GTBDR01991
GTBDR01801
GTBDR01796
GTBDR01736
GTBDR01727
GTBDR01821
GTBDR00308
GTBDR01711
GTBDR00165
GTBDR00113
GTBDR00111
GTBDR00110
GTBDR00109
GTBDR02008
GTBDR00217
GTBDR01849
GTBDR01846
GTBDR01838
GTBDR02044
GTBDR00103
GTBDR02011
GTBDR01380
GTBDR00355
GTBDR00313
GTBDR02338
GTBDR02299
GTBDR02116
GTBDR02468
GTBDR02429
GTBDR02383
GTBDR02354
GTBDR02447
GTBDR02320
GTBDR02315
GTBDR02222
GTBDR02444
GTBDR02360
GTBDR02464
GTBDR02513
GTBDR02235
GTBDR01250
GTBDR00824
GTBDR01015
GTBDR02402
GTBDR02369
GTBDR02581
GTBDR01293
GTBDR01270
GTBDR01259
GTBDR01242
GTBDR01241
GTBDR01224
GTBDR01128
GTBDR01125
GTBDR01061
GTBDR01046
GTBDR00844
GTBDR00838
GTBDR00831
GTBDR00732
GTBDR00729
GTBDR00727
GTBDR00722
GTBDR00716
GTBDR00707
GTBDR00352
GTBDR00351
GTBDR01221
GTBDR01261
GTBDR01161
GTBDR01064
GTBDR02055
GTBDR02371
GTBDR01726
GTBDR01728
GTBDR01706
GTBDR02407
GTBDR01278
GTBDR00812
GTBDR00790
GTBDR00463
GTBDR00785
GTBDR01265
GTBDR01923
GTBDR01716
GTBDR01715
GTBDR01714
GTBDR02067
GTBDR01315
GTBDR02098
GTBDR02304
GTBDR02106
GTBDR02101
GTBDR01312
GTBDR01269
GTBDR01267
GTBDR01262
GTBDR01215
GTBDR01214
GTBDR01208
GTBDR01172
GTBDR01167
GTBDR01148
GTBDR01126
GTBDR00742
GTBDR00712
GTBDR00356
GTBDR02500
GTBDR02343
GTBDR02445
GTBDR02256
GTBDR01829
GTBDR01818
GTBDR01805
GTBDR00786
GTBDR01275
GTBDR01273
GTBDR01264
GTBDR01249
GTBDR19445
GTBDR00840
GTBDR02301
GTBDR00806
GTBDR02341
GTBDR02323
GTBDR02229
GTBDR01162
GTBDR01150
GTBDR01141
GTBDR01120
GTBDR00850
GTBDR00753
GTBDR19446
GTBDR01053
GTBDR02528
GTBDR02522
GTBDR02520
GTBDR02471
GTBDR02455
GTBDR02312
GTBDR02480
GTBDR02307
GTBDR02529
GTBDR19447
GTBDR02276
GTBDR02580
GTBDR02411
GTBDR02484
GTBDR01288
GTBDR01287
GTBDR01124
GTBDR01034
GTBDR00342
GTBDR00300
GTBDR00205
GTBDR02291
GTBDR02297
GTBDR00766
GTBDR02375
GTBDR02033
GTBDR01965
GTBDR00337
GTBDR01298
GTBDR01276
GTBDR01263
GTBDR00837
GTBDR00818
GTBDR00809
GTBDR01188
GTBDR01149
GTBDR02427
GTBDR02376
GTBDR00822
GTBDR02434
GTBDR00706
GTBDR00612
GTBDR01286
GTBDR01389
GTBDR01387
GTBDR01248
GTBDR01233
GTBDR02356
GTBDR02457
GTBDR02419
GTBDR02325
GTBDR02288
GTBDR02313
GTBDR02350
GTBDR02426
GTBDR02395
GTBDR02381
GTBDR02286
GTBDR02275
GTBDR02091
GTBDR01327
GTBDR01325
GTBDR01321
GTBDR01316
GTBDR01792
GTBDR01303
GTBDR01279
GTBDR01236
GTBDR01170
GTBDR02056
GTBDR00315
GTBDR00161
GTBDR02036
GTBDR01946
GTBDR01782
GTBDR01761
GTBDR01721
GTBDR01705
GTBDR00204
GTBDR00183
GTBDR00170
GTBDR00163
GTBDR00126
GTBDR00116
GTBDR02516
GTBDR02405
GTBDR00827
GTBDR01174
GTBDR01252
GTBDR01152
GTBDR01332
GTBDR01344
GTBDR01343
GTBDR01342
GTBDR01341
GTBDR01333
GTBDR01320
GTBDR01227
GTBDR01173
GTBDR00821
GTBDR01222
GTBDR01255
GTBDR01237
GTBDR01147
GTBDR01119
GTBDR00828
GTBDR00739
GTBDR00723
GTBDR01366
GTBDR01355
GTBDR01228
GTBDR01169
GTBDR00717
GTBDR00704
GTBDR00724
GTBDR02394
GTBDR02322
GTBDR02512
GTBDR00829
GTBDR00851
GTBDR00843
GTBDR02370
GTBDR00839
GTBDR00804
GTBDR00762
GTBDR02236
GTBDR00705
GTBDR00787
GTBDR01391
GTBDR01390
GTBDR01369
GTBDR01353
GTBDR00819
GTBDR02053
GTBDR02050
GTBDR01971
GTBDR01952
GTBDR02001
GTBDR01974
GTBDR02052
GTBDR01702
GTBDR01731
GTBDR01786
GTBDR01920
GTBDR01760
GTBDR02093
GTBDR02077
GTBDR02034
GTBDR02094
GTBDR02026
GTBDR01960
GTBDR01708
GTBDR01628
GTBDR01807
GTBDR00797
GTBDR00105
GTBDR01234
GTBDR01055
GTBDR01181
GTBDR01157
GTBDR01121
GTBDR02372
GTBDR01156
GTBDR01354
GTBDR01352
GTBDR01319
GTBDR01239
GTBDR01223
GTBDR01211
GTBDR01182
GTBDR01132
GTBDR01067
GTBDR01009
GTBDR19454
GTBDR01373
GTBDR00338
GTBDR02476
GTBDR00772
GTBDR15100
GTBDR00834
GTBDR00775
GTBDR01368
GTBDR01365
GTBDR01360
GTBDR01376
GTBDR01359
GTBDR02489
GTBDR00339
GTBDR00454
GTBDR00453
GTBDR01367
GTBDR01220
GTBDR02490
GTBDR02108
GTBDR02100
GTBDR02086
GTBDR02032
GTBDR01988
GTBDR01314
GTBDR01039
GTBDR01019
GTBDR00754
GTBDR00752
GTBDR00309
GTBDR00228
GTBDR01961
GTBDR01619
GTBDR01617
GTBDR00227
GTBDR01381
GTBDR01052
GTBDR02463
GTBDR01110
GTBDR01112
GTBDR01109
GTBDR01095
GTBDR01036
GTBDR02423
GTBDR02330
GTBDR02316
GTBDR02267
GTBDR02504
GTBDR02433
GTBDR02391
GTBDR02380
GTBDR02379
GTBDR02308
GTBDR02248
GTBDR02469
GTBDR02265
GTBDR02201
GTBDR01084
GTBDR02283
GTBDR02428
GTBDR02518
GTBDR02390
GTBDR02460
GTBDR02437
GTBDR02351
GTBDR02347
GTBDR02264
GTBDR02363
GTBDR02253
GTBDR02239
GTBDR01091
GTBDR01088
GTBDR01090
GTBDR01089
GTBDR01106
GTBDR01271
GTBDR01257
GTBDR01140
GTBDR01097
GTBDR01085
GTBDR01083
GTBDR02270
GTBDR01072
GTBDR01013
GTBDR00426
GTBDR02404
GTBDR00607
GTBDR02031
GTBDR02327
GTBDR02296
GTBDR02072
GTBDR02030
GTBDR19453
GTBDR02473
GTBDR00780
GTBDR02305
GTBDR01069
GTBDR00738
GTBDR02079
GTBDR01794
GTBDR02491
GTBDR15105
GTBDR02345
GTBDR02266
GTBDR00765
GTBDR00331
GTBDR02586
GTBDR01235
GTBDR01129
GTBDR01070
GTBDR01048
GTBDR02594
GTBDR01936
GTBDR01388
GTBDR01382
GTBDR01809
GTBDR01364
GTBDR00748
GTBDR01814
GTBDR02595
GTBDR01906
GTBDR01810
GTBDR01710
GTBDR01246
GTBDR01179
GTBDR01178
GTBDR01164
GTBDR01137
GTBDR01059
GTBDR01050
GTBDR01040
GTBDR01011
GTBDR00311
GTBDR00203
GTBDR00305
GTBDR01852
GTBDR02028
GTBDR00104
GTBDR02454
GTBDR02436
GTBDR02368
GTBDR00101
